<svg xmlns="http://www.w3.org/2000/svg" width="31.206" height="31.206" viewBox="0 0 31.206 31.206">
  <g id="Group_62" data-name="Group 62" transform="translate(-1223.378 -1356.668) rotate(45)">
    <line id="Line_3" data-name="Line 3" x2="40.132" transform="translate(1826.368 94.25)" fill="none" stroke="#05212c" stroke-width="4"/>
    <line id="Line_28" data-name="Line 28" x2="40.132" transform="translate(1846.434 74.184) rotate(90)" fill="none" stroke="#05212c" stroke-width="4"/>
  </g>
</svg>
