<svg xmlns="http://www.w3.org/2000/svg" width="39.176" height="34.596" viewBox="0 0 39.176 34.596">
  <path id="Path_106" data-name="Path 106" d="M.795,0H38.381a.776.776,0,0,1,.795.795V27.518a.776.776,0,0,1-.795.795H20.364v4.731H25.1a.776.776,0,1,1,0,1.552H14.081a.768.768,0,0,1-.795-.757.776.776,0,0,1,.795-.795h4.731V28.313H.795A.776.776,0,0,1,0,27.518V.795A.776.776,0,0,1,.795,0ZM19.569,5.488a8.668,8.668,0,1,1-8.63,8.668A8.667,8.667,0,0,1,19.569,5.488Zm0,1.59a7.078,7.078,0,1,0,7.078,7.078A7.092,7.092,0,0,0,19.569,7.078ZM18.358,9.955l5.451,3.558a.8.8,0,0,1,0,1.325L18.32,18.4a.782.782,0,0,1-1.211-.643V10.561A.769.769,0,0,1,18.358,9.955Zm3.6,4.2L18.661,12v4.315ZM37.587,1.59h-36V26.761h36Z" fill="#00fab4"/>
</svg>
