<svg xmlns="http://www.w3.org/2000/svg" width="1091.491" height="502.432" viewBox="0 0 1091.491 502.432">
  <g id="Group_137" data-name="Group 137" transform="translate(-2255.612 6112.44)" opacity="0.15">
    <path id="Path_110" data-name="Path 110" d="M2419.608-5549.822l4.807-6.589,1.206-.127,3.007-6.393q8.421-20.342,9.623-49.056l1.205-31.138a4.387,4.387,0,0,1,.6,1.763q1.2,14.467,1.2,21.158a166.074,166.074,0,0,1-7.814,50.684q-5.425,16.389-12.629,26.255-14.444,17.338-30.677,26.333-12.026,7.356-31.279,10.584-4.2,1.055-11.122,2.692a93.251,93.251,0,0,1-11.13,2.079,56.74,56.74,0,0,1-19.849-1.559,50.716,50.716,0,0,1-11.725-3.026q-6.317-2.37-8.726-3.341-7.211-2.879-16.238-13.492l-12.026-15.761q-1.21-1.089-2.4-4.612-5.425-21.319-6.616-27.278a86.46,86.46,0,0,1-3.006-20.967,88.752,88.752,0,0,1-.3-12.432q.295-5.2.3-8.851l.6-9.793v-2.432q-.61-2.368,1.2-5.6.6-2.494,6.616-14.681,1.808-3.226,4.212-3.481l3.006.29a6.261,6.261,0,0,0,3.007.3q3.6-.379,4.212,1.989c1.2,1.086,1.8,1.432,1.8,1.023a8.921,8.921,0,0,1,3.609-.985,8.871,8.871,0,0,0,3.61-.985v3.644l3.609-2.2a39.861,39.861,0,0,1,10.226-4.113c1.6-.168,2.6-.069,3.007.29q11.417,8.541,12.026,9.079l-3.006,9.438a13.2,13.2,0,0,0,0,7.9q0,9.728.6,16.66t1.205,11.125a35.817,35.817,0,0,0,.6,7.84q1.2,10.83,2.41,14.953a7.346,7.346,0,0,0,2.7,3.361q2.1,1.608,2.713,2.147a39.314,39.314,0,0,0,21.054,3.257l13.826-2.059q11.427-1.8,16.239-14.475,3.606-8.89,3.609-27.747,0-6.068-1.2-19.331a32.244,32.244,0,0,0-1.206-7.17l-4.807-14.088c-.807-1.536-1.613-2.967-2.412-4.308s-1.4-2.383-1.8-3.16q-6.012-9.1-18.046-19.993-2.408-1.566-12.629-6.575l-19.246-10.752a98.885,98.885,0,0,0-10.828-5.544,22.942,22.942,0,0,1-10.821-7.379l-10.828-10.416q-19.849-21.02-27.067-59.179a79.07,79.07,0,0,1-1.8-16.836,76.547,76.547,0,0,1,2.4-19.1q2.4-11.2,4.212-16.861a51.859,51.859,0,0,1,6.013-15.225q4.205-7.124,11.424-17.62,10.828-13.912,23.458-21.316,3.605-2.2,12.629-7.4a69.521,69.521,0,0,1,16.841-7.248,79.991,79.991,0,0,1,15.636-2.856,147.994,147.994,0,0,1,23.457-.647q7.822.406,21.054,6.3a79.693,79.693,0,0,1,19.848,11.9A38.362,38.362,0,0,1,2419-5875.7a130.994,130.994,0,0,1,12.629,29.078,58.833,58.833,0,0,1,1.8,10.759q.6,6.62,1.206,10.814l1.808,21.093.6,8.453v1.826l-3.014,5.182-3.006.314.6,2.37a3.854,3.854,0,0,1-.6,2.5l-2.4,2.685-5.41,2.387-5.418.57-8.417.884q-1.21-.475-6.616-2.342a6.3,6.3,0,0,0,.6,2.974c-.807.085-1.206-.07-1.206-.479q-2.408-2.179-4.213-1.383a3.61,3.61,0,0,1-3.6-1.44q-1.809-2.242-5.117-.674a22.452,22.452,0,0,1-3.911,1.623v-4.864a2.659,2.659,0,0,1-.3-2.1,7.236,7.236,0,0,0,.3-2.162l-3.006-24.005q-.61-7.232-4.206-20.235,0-1.215-4.814-6.791c-.407-.366-.9-.821-1.507-1.364a6.784,6.784,0,0,1-1.5-1.972q-4.816-6.177-13.233-5.3l1.8-2.007a103.93,103.93,0,0,0-12.629.713q-9.019.948-21.046,8.9a16.342,16.342,0,0,0-4.815,5.371q-4.216,8.966-7.218,17.177-.61,2.5-1.206,4.687c-.4,1.467-.8,3.024-1.2,4.687a37.574,37.574,0,0,0,.6-7.965l-.6.063-.6,3.708a56.333,56.333,0,0,0-.6,9.792q0,10.956,5.418,28.01,3.007,10.641,13.232,19.892l2.4,1.574-9.02-9.386.6-.678q13.225,13.215,22.252,16.513,1.8,4.073,6.616,3.563a11.154,11.154,0,0,0-6.616-3.563l-9.623-6.892a15.059,15.059,0,0,1-4.815-3.751,2.256,2.256,0,0,1,1.809.423q6.611,5.988,23.449,12.734a151.069,151.069,0,0,1,33.683,18.349,108.658,108.658,0,0,1,33.08,38.484q1.808,4.071,3.91,10.234t3.308,9.685q1.2,2.306,2.4,10.082.6-17.089-9.622-36.691l.6-.669,5.41,11.592a69.489,69.489,0,0,1,4.506,15.642q1.5,8.662,2.11,11.636,1.808,8.323,1.808,25.958v20.063q0,17.025-7.822,42.783a46.174,46.174,0,0,1-3.609,7.07,26.2,26.2,0,0,0,2.4-6.943l-7.814,16.02ZM2282.48-5742.166q12.625,21.789,36.682,35.672v-.6c-.8-.728-1.4-1.074-1.8-1.031q-14.444-10.642-21.053-17.244-13.235-14.419-22.854-40.165-6.013-17-5.41-31.656a53.522,53.522,0,0,1,.6-8.579q.6-3.712,1.2-6.21a71.979,71.979,0,0,1,10.829-30.93l1.808-3.843-.6.063q-3.006,5.18-5.72,10.027t-4.506,8.687l1.206-4.991a27.709,27.709,0,0,1,1.2-4.384l-1.8,2.622-.6,1.89a96.527,96.527,0,0,0-7.218,36.634,75.571,75.571,0,0,0,2.4,19.812q6.612,32.15,26.464,52.559l6.021,6.05a.6.6,0,0,1,.6-.668Q2286.681-5731.659,2282.48-5742.166Zm-14.437,129.831-.6-4.195-1.2.126.6,2.976c0,1.622-.2,2.659-.6,3.1-1.205,1.346-1.613,3.215-1.205,5.6Q2268.042-5609.289,2268.043-5612.335Zm3.609,41.574-5.41-32.876A101,101,0,0,0,2271.652-5570.761Zm-.6-199.39-.6.67q-2.406-10.078-3.006-13.057a.6.6,0,0,1,.6-.677A88.892,88.892,0,0,0,2271.049-5770.151Zm1.206,202.978a.6.6,0,0,1-.6.669,99.37,99.37,0,0,0,2.4,13.734l.6-.063A129.9,129.9,0,0,0,2272.255-5567.173Zm43.3-266.035q-7.222,6.85-8.424,11.834a181.6,181.6,0,0,0-4.808,23.614,25.168,25.168,0,0,0,.6,9.363q1.2,5.046,1.808,6.8a67.322,67.322,0,0,1,3.007,11.239q.6,1.755,1.2,3.821t1.205,3.829a140.494,140.494,0,0,0,9.02,10.909,32.056,32.056,0,0,0,10.226,7.745l36.689,17.427a142.976,142.976,0,0,1,15.041,8.148q15.631,12.951,21.649,21.44,1.8,2.858,5.109,7.365a31.679,31.679,0,0,1,4.514,8.042q6.611,13.9,7.821,42.35l-.6,31.075a125.184,125.184,0,0,1-6.616,34.14,80.267,80.267,0,0,0-3.014,7.924,32.166,32.166,0,0,1-4.205,8.648,161.471,161.471,0,0,1-13.231,13.552q-14.435,13.074-28.868,15.194-5.414,1.184-11.129,2.087t-11.122,2.079a35.591,35.591,0,0,1-7.822,2.034q-3.005.316-11.423-1.231l-12.034-3.6a27.048,27.048,0,0,1-10.821-6.766q-7.223-8.969-10.225-13.518a40.712,40.712,0,0,1-5.418-10.379l-3.006-14.883-3.007-22.793-.6-1.763-1.2.126a25.551,25.551,0,0,1,.6,6.021q3.606,21.51,6.021,31.592a28.758,28.758,0,0,0,2.4,6.749,59.662,59.662,0,0,1,2.411,5.521q.6,1.154,6.616,9.639l4.815,4.964a22.552,22.552,0,0,0,10.519,7.107q6.318,2.076,7.52,2.551c1.206.283,3.512.859,6.918,1.714a28.371,28.371,0,0,0,9.923.775l18.643-3.172q14.434-2.733,20.451-4.582,18.638-7.438,31.874-25.247,6.013-7.928,6.616-10.423,9.019-21.009,9.63-39.927,1.2-17.152,1.2-26.273a162.391,162.391,0,0,0-.6-16.356q-2.408-24.069-7.211-35.119l-3.609-6.917q-12.038-15.76-18.65-22.369-12.636-12.038-33.08-21.451-3.005-1.5-18.642-7.769-14.445-6.392-19.245-14.4l-1.206-1.093-6.616-6a24.058,24.058,0,0,1-3.61-8.129l-3.609-14.827a48.9,48.9,0,0,1-1.8-13.184v-3.039a43.694,43.694,0,0,1,1.2-9.551q1.2-5.3,1.808-7.184a22.827,22.827,0,0,1,5.411-11.517l3.014-3.969,9.021-9.456q-1.211.74-4.514,3.209A12.36,12.36,0,0,0,2315.56-5833.208Zm-34.285-20.718c0,.409.2.585.6.543l6.616-9.2a.479.479,0,0,0-.6-.543Q2280.668-5853.256,2281.275-5853.926Zm1.206,72.24-1.206.732q3.606,9.35,7.822,23.5l1.2-.732Q2286.677-5767.535,2282.48-5781.686ZM2300.52-5845q-7.223,6.839-13.232,22.067t-3.609,20.443l5.418-21.853a29.284,29.284,0,0,1,5.712-12.155A57.809,57.809,0,0,0,2300.52-5845Zm89.015,282.526q1.2.487,3.007-.922a6.736,6.736,0,0,0,2.4-3.3l4.212-10.778q.6-1.881,2.4-7.246a54.253,54.253,0,0,0,2.411-9.679l3.007-33.153q1.8-25.113-6.616-44.91a73.637,73.637,0,0,0-4.815-8.919q-2.408-3.7-4.212-6.551a20.227,20.227,0,0,0-4.205-5.634q-5.425-6.112-16.841-14.649a21.847,21.847,0,0,0-6.617-4.168,55.546,55.546,0,0,0-6.616-3.259c-2-.805-3.813-1.524-5.41-2.167l-12.636-6.582q-1.2-.475-5.712-2.135a22.566,22.566,0,0,1-7.52-4.377l-2.4-1.574a117.943,117.943,0,0,1-13.836-10.1,34.533,34.533,0,0,1-10.82-18.925,107.446,107.446,0,0,0-4.213-12.324l-4.212-12.332a73.2,73.2,0,0,1-1.2-11.429q0-14.593,6.616-30.487,4.2-12.6,18.039-24.4,4.815-3.541,9.623-6.481a91.244,91.244,0,0,0,8.425-5.75l3.609-2.206c-.407.042-.6-.135-.6-.543a25.047,25.047,0,0,0-3.911,2.237,18.727,18.727,0,0,1-5.116,2.356,28.675,28.675,0,0,0-9.623,6.187q-4.816,4.46-7.212,6.531l-1.809,2.017a42.527,42.527,0,0,1-4.212,5.913q-9.021,10.074-11.424,19.445l-2.4,8.762a71.42,71.42,0,0,0-3.006,19.167,50.971,50.971,0,0,0,1.2,9.6q5.414,19.5,9.622,32.44,3.007,8.2,15.041,17.876a69.2,69.2,0,0,0,18.643,10.808q10.828,4.34,13.834,5.842a139.572,139.572,0,0,1,25.258,13.764q9.02,6.962,19.849,19.8,9.019,12.439,11.431,24.34,2.4,22.865,3.007,34.347,0,7.912-1.206,23.842a5.368,5.368,0,0,1-.6,2.8,4.039,4.039,0,0,0-.6,2.192,21,21,0,0,1-.6,8.581c-.8,2.917-1.4,5.011-1.8,6.265l-4.212,11.391a19.98,19.98,0,0,1-3.006,3.961l-4.808,4.763c1.6-.57,2.4-.654,2.4-.252l-9.02,8.244a71.377,71.377,0,0,0-6.623,3.734,21.96,21.96,0,0,1-9.012,3.38l-3.014.316a12.353,12.353,0,0,0-5.411.577,28.613,28.613,0,0,1-5.409,1.174v.606l6.615-.7-25.266,5.087v.606a6.3,6.3,0,0,0,3.015.29l13.827-2.06q11.428-1.8,17.143-3.317a31.141,31.141,0,0,0,11.13-5.731l10.821-9.047a2.291,2.291,0,0,0,.6-1.579A2.285,2.285,0,0,1,2389.535-5562.474Zm-96.234,36.262-6.013-6.665-.6.669a59.365,59.365,0,0,0,6.021,6.664Zm9.027-344.52-9.027,7.639c.4-.042.6.141.6.543l9.02-7.639C2302.524-5870.146,2302.328-5870.323,2302.328-5870.732Zm-4.212,94.092,3.007,6.98a51.574,51.574,0,0,0,2.4,8.862q4.815,14.1,19.848,23.456a.6.6,0,0,1,.6-.669l-2.4-1.574q-14.446-11.243-18.65-26.619l-1.8-3.455a8.682,8.682,0,0,0-1.206-3.526,119.738,119.738,0,0,1-4.2-23.879v-10.948a38.41,38.41,0,0,0-1.809,11.744Q2293.9-5787.743,2298.116-5776.64Zm-3.61,253.339-.6.677c2,1.82,3.609,2.659,4.815,2.532a.6.6,0,0,1,.6-.669Q2295.106-5523.364,2294.507-5523.3Zm23.457-321.1,7.219-8.055-.6.063-1.206.127q-5.415,1.785-12.027,10.387a108.731,108.731,0,0,0-6.616,9.81q-3.616,5.859-4.212,10.179a217.073,217.073,0,0,0-3.61,22.269,10.739,10.739,0,0,0-.3,4.29,19.186,19.186,0,0,1,.3,3.007,79.351,79.351,0,0,0,4.513,15.641,121.469,121.469,0,0,1,4.507,13.2q3.605,13.008,17.445,21.882,6.611,5.4,22.251,12.262,10.218,4.4,21.054,10.251a78.628,78.628,0,0,1,18.039,13,180.391,180.391,0,0,1,15.643,16.9,52.01,52.01,0,0,1,9.02,17.6,21.441,21.441,0,0,1,2.4,6.438,32.114,32.114,0,0,0-1.2-7.171q-2.419-9.474-4.816-13.481a106.971,106.971,0,0,0-22.251-25.028,95.354,95.354,0,0,0-28.868-17.644q-21.058-8.117-28.272-13.447-15.033-11.785-18.643-23.574l-3.007-8.807a58.376,58.376,0,0,1-5.41-23.752,103.286,103.286,0,0,1,1.2-12.295A59.326,59.326,0,0,1,2317.964-5844.4Zm-13.232,219.695a3.752,3.752,0,0,0-1.205-2.912l2.4-1.473-5.41-6.728c0,.409-.4.648-1.2.732.8.734,1.394,2.5,1.8,5.289S2302.728-5625.307,2304.732-5624.707Zm-4.212-249.479,1.206-.126,18.642-11.082a60.185,60.185,0,0,1,20.451-7.627,205.61,205.61,0,0,1,30.677-2q21.045,2.051,33.675,11.054l4.815,3.752q-9.019-9.394-24.965-13.8a90.872,90.872,0,0,0-33.976-2.513Q2320.967-5893.368,2300.52-5874.187Zm0,12.162,21.054-15.594q-4.216,1.058-11.733,6.7T2300.52-5862.025Zm5.41,266.991a50.041,50.041,0,0,1,1.205,8.382l.6-.064q.6-8.563-2.4-21.03l-1.206,1.346a6.363,6.363,0,0,1-.6-2.982l-1.2.126a46.776,46.776,0,0,0,.6,12.711q1.2,7.17,1.808,11.97A76.462,76.462,0,0,0,2305.93-5595.034Zm-3.6-252.589,11.424-12.149-.6-1.149Q2304.729-5852.739,2302.328-5847.623Zm5.411,211.044-4.212-.769c.4.768.9,1.731,1.5,2.88a4.372,4.372,0,0,0,2.11,2.21q2.4,1.578,2.4,6.438a19.389,19.389,0,0,0-.595,5.533v3.039a27.609,27.609,0,0,0,2.4-10.588A11.246,11.246,0,0,0,2307.739-5636.578Zm17.444-65.078L2305.93-5713Q2312.542-5705.789,2325.183-5701.656Zm5.411-15.161-24.061-15.1a36.126,36.126,0,0,0,10.828,8.591Q2323.974-5719.761,2330.594-5716.816Zm-18.047,149.667a18.51,18.51,0,0,0,1.206,4.737,3.343,3.343,0,0,0,2.4,1.566l-1.8-3.456a37.345,37.345,0,0,1,3.6,2.356,15.514,15.514,0,0,0,4.815,2.229q3.606,1.452,12.637,1.711a123.391,123.391,0,0,0,14.43-.3,61.831,61.831,0,0,0,14.437-3.343q12.026-3.082,15.032-13.134,3.606-8.881,4.213-13.209a93.087,93.087,0,0,0,2.1-10.254q.9-5.867,1.507-8.978a158.146,158.146,0,0,0,.6-15.876,134.394,134.394,0,0,0-1.808-22.3q-4.216-28.129-30.677-44.207a131.128,131.128,0,0,0-13.526-6.784,78.239,78.239,0,0,1-10.527-5.281q-1.209-1.088-7.821-3.436l-.6.67q7.211,3.5,8.425,3.979a149.635,149.635,0,0,1,20.745,9.375,60.864,60.864,0,0,1,14.739,11.831q14.434,14.907,18.039,30.942a103.171,103.171,0,0,1,1.808,19.267l-.6,15.869a57.1,57.1,0,0,1-.6,9.8v-25.542a19.169,19.169,0,0,0-.6,5.534q-1.2,22.014-4.808,37.6a53.654,53.654,0,0,1-5.41,14.556q-3.617,5.857-13.232,8.074a78.247,78.247,0,0,1-11.43,1.814,79.589,79.589,0,0,1-21.047-.22q-11.438-.615-13.835-11.32a71.273,71.273,0,0,1-1.808-15.009v-3.653q0-8.5-3.007-13.67-.61,1.895-1.205,3.779a16.727,16.727,0,0,0-.6,4.926l.6,9.666a20.458,20.458,0,0,0,1.2,6.564,20.262,20.262,0,0,0,1.206,6.563l-.6.063-1.8-4.069a.6.6,0,0,1-.6.67,27.1,27.1,0,0,1,1.5,4.411A15.076,15.076,0,0,0,2312.546-5567.149Zm17.444,27.352-16.239-5.589v.605Q2322.772-5539.034,2329.99-5539.8Zm92.021-31.561a25.48,25.48,0,0,0-1.206,3.165,10.741,10.741,0,0,0-.6,3.1l.6,2.369-.6,1.889a22.03,22.03,0,0,0-2.11,3.571,14.187,14.187,0,0,1-4.506,5.027,56.675,56.675,0,0,0-5.116,5.1,37.548,37.548,0,0,0-3.911,4.972q-20.447,21.606-45.107,24.2a21.253,21.253,0,0,0-4.807,1.725l-5.418,1.175-22.251,3.559c-1.205.127-1.8-.015-1.8-.424a2.692,2.692,0,0,0-2.712-1.837,25.305,25.305,0,0,0-2.706-.026l-2.4.866q7.212,2.891,11.431,2.443l1.8-.189,24.655-2.591q23.454-3.67,39.7-15.727,9.021-5.812,19.253-19.654a4.456,4.456,0,0,0,.9-1.913,3.144,3.144,0,0,1,1.507-1.993q3.007-1.52,4.212-7.125l1.2-3.172a11.742,11.742,0,0,0,1.206-4.99A4.55,4.55,0,0,0,2422.012-5571.358ZM2336-5555.022l-9.622-.814-8.417-3.374q3.007,3.947,7.219,3.5l1.2-.125q4.815,1.926,7.822,1.61l1.8-.189Zm-7.813,6.9-10.226-4.4Q2320.971-5548.574,2328.19-5548.124Zm11.423,43.191-14.43.91q2.4.954,7.814.392A29.784,29.784,0,0,0,2339.613-5504.933Zm-13.232-349.476a100.68,100.68,0,0,1,17.143-4.234q9.924-1.645,15.334-2.832l-12.629.722Q2333.593-5859.425,2326.381-5854.409Zm1.809,101.968-1.809-.417.6,1.149q12.625,8.4,15.041,9.367,4.2,1.991,17.738,8.168a212.406,212.406,0,0,1,24.361,12.949c0,.408.4.563,1.2.479,0-.8-.2-1.19-.6-1.148q-4.815-2.539-11.122-6.127t-14.74-8.187q-4.2-1.991-14.128-6.418A73.2,73.2,0,0,1,2328.19-5752.44Zm13.232,63.065a.6.6,0,0,1,.6-.669l-12.637-5.362v.606a54.154,54.154,0,0,0,6.615,3.267C2338.008-5690.729,2339.809-5690.009,2341.422-5689.375Zm71.57,27.748-.6.064v.606a183.919,183.919,0,0,1,2.4,31.372,218.942,218.942,0,0,1-1.8,27.55,46.138,46.138,0,0,1-.6,6.451q-.612,4.019-1.206,6.514a123.052,123.052,0,0,1-3.61,12.843q-2.407,7.255-3.6,10.411a14.822,14.822,0,0,1-3.61,5.857,118.924,118.924,0,0,1-11.431,11.536q-13.234,12.335-28.265,14.526-8.432.886-25.258,3.867l6.616,1.13.6-.062a134.725,134.725,0,0,1,15.04-2.793,43.333,43.333,0,0,0,16.532-5.079,157.309,157.309,0,0,0,17.144-11.235,65.612,65.612,0,0,0,5.719-5.769q3.3-3.687,5.712-6.374,2.4-2.684,4.815-9.022,7.81-20.279,7.814-32.439l.6-12.837a100.988,100.988,0,0,0,.6-12.831q0-6.683-1.205-21.156a19.18,19.18,0,0,0-1.2-5.958A32.22,32.22,0,0,0,2412.992-5661.627Zm-71.57-51.462,22.854,12.8.6-.678q-3.617-2.052-10.527-6.493A38.3,38.3,0,0,0,2341.422-5713.09Zm45.106,143.635-6.616,6.166q-9.019,8.857-23.458,11.587a73.929,73.929,0,0,0-10.828,1.745,7.071,7.071,0,0,0-3.006.93,31.182,31.182,0,0,0,7.219-.153,62.33,62.33,0,0,0,24.052-7.695Q2385.318-5563.248,2386.528-5569.455Zm-35.483-132.487,12.629,7.795.6-.669-12.629-7.8A.6.6,0,0,1,2351.045-5701.941Zm.6,17.576a.6.6,0,0,1-.6.669,30.806,30.806,0,0,0,5.409,3.689v-.606A15.424,15.424,0,0,0,2351.647-5684.366Zm21.047,161.97-16.24,3.533Q2366.074-5518.658,2372.694-5522.4Zm4.814-362.928q19.237,7.706,23.457,9.089Q2387.73-5883.958,2377.508-5885.324Zm17.437,76v7.3l1.206-.126v-12.768a43,43,0,0,0-1.8-12.585l-6.021-17q-1.2-2.307-6.617-4.776a13.488,13.488,0,0,1,6.617,8.419l3.609,8.138A70.051,70.051,0,0,1,2394.945-5809.32Zm24.663,131.8q.6-6.143-13.232-23.234t-20.451-18.831Q2409.379-5698.946,2419.608-5677.522Zm-25.861,5.15-7.219-10.8-.6.063,7.219,11.4A.6.6,0,0,0,2393.747-5672.372Zm6.013-141.1.6-.676v-6.077a79.809,79.809,0,0,0-10.828-31.094,15.348,15.348,0,0,0-3.007-3.328Q2399.753-5833.533,2399.76-5813.471Zm-2.4,169.906a.479.479,0,0,0-.6-.543v1.826l-1.206,39.042q0,5.479-2.4,15.452l-4.212,13.217a3.807,3.807,0,0,0-.6,2.5l.6-.063q9.019-21.62,9.019-52.031Q2397.951-5636.934,2397.356-5643.565Zm13.232,106.852-21.657,17.476A65.954,65.954,0,0,0,2410.589-5536.713Zm-18.65-87.431v-12.16l-.6.063v12.161Zm3.609-225.979-.6.67a2.286,2.286,0,0,1,.6,1.763q9.619,20.276,7.822,40.524l.6,2.983a65.066,65.066,0,0,0,.6-9.792Q2404.568-5828.568,2395.548-5850.124Zm1.809,191.359,3.609,28.2Q2400.966-5649.408,2397.356-5658.764Zm9.623,96.282-6.013,7.929c0,.409.2.585.6.543l6.021-7.929Zm-3.609,19.23q6.012-3.678,12.026-15.251A151.779,151.779,0,0,1,2403.37-5543.251Zm16.239-142.787-15.041-21.528a.6.6,0,0,1-.6.676L2419-5685.369Zm-13.232-22.325-.6.67,12.629,17.523Q2411.18-5702.776,2406.376-5708.363Zm11.423-162.95q12.027,26.717,13.835,49.621Q2431.634-5850.265,2417.8-5871.313Zm4.815,293.2-4.212,11.384c.4-.042.6.141.6.55l4.815-11.455Zm-2.4-245.418v15.207a.6.6,0,0,1,.6-.677A126.163,126.163,0,0,1,2420.211-5823.53Zm7.211,243.692.6-.063q2.408-4.5,3.911-21.08t1.507-32.39q0-15.809-1.809-19.874v13.98l-1.8,37.891-2.412,17.893a2.94,2.94,0,0,0-.3,2.161A4.894,4.894,0,0,1,2427.422-5579.837Z" transform="translate(0 -108.716)" fill="#4e7180"/>
    <path id="Path_111" data-name="Path 111" d="M2805.378-5568.629l-1.2.125v-3.039a3.3,3.3,0,0,0-.6-2.368q-2.407-2.179-1.206-7.776l.6-28.644-1.8-65.487-1.205-36.969c0-.8-.2-1.191-.6-1.149v7.3l.6,38.852q1.2,30.287,1.205,46.7a85.178,85.178,0,0,1,.595,12.1,102.934,102.934,0,0,1-.595,12.837q0,8.513-1.205,25.66,0,1.228-3.61,8.291a16.413,16.413,0,0,1-2.4,3.9,1.156,1.156,0,0,0-.3-.877c-.2-.175-.1-.5.3-.949a87.131,87.131,0,0,0,3.609-24.1c.4-1.663.8-3.523,1.2-5.6a39.339,39.339,0,0,0,.6-7.36q0-18.241-.6-27.3,0-19.457-1.2-58.253l-1.809-48.46q-.609-14.531-.6-43.716l-.6-29.124.6-25a50.143,50.143,0,0,0-1.2-9l-.6.064v4.864l-.6,49.321.6,52.231,1.8,51.5v38.309l.6,10.271v25.542l-1.2.125-3.61-99.953-.6.064v2.432l1.206,61.292,1.8,56.364a62.3,62.3,0,0,1-.6,8.571,61.316,61.316,0,0,0-.6,8.58l-.594,9.791-.6,4.928-3.006-3.942-1.809,5.055q-2.407-3.384-2.4-11.3,0-6.681,1.8-10.523v7.3l.6-.064q.6-5.529.9-11.338t.9-11.96v18.851a84.609,84.609,0,0,0,2.4-15.148q.6-8.269.6-10.7a21.454,21.454,0,0,0-2.411,2.072l-.595-3.582-1.206-26.021q0-4.251-1.8-5.9c-.407.043-.6-.747-.6-2.369l-.6-27.3-1.206-38.8a188,188,0,0,0-1.8-26.564l1.8,93.453q-1.2-13.24-1.2-39.395l-1.206-33.931-1.205.126v3.652l1.809,58.189q1.2,26.626,1.2,38.788a112.083,112.083,0,0,1-2.4,24.574q-.612,2.5-1.206,6.211a54.327,54.327,0,0,0-.6,8.571,10.824,10.824,0,0,0,.6,6.021,19.321,19.321,0,0,1-.6,5.534c0,1.622-.806,2.312-2.4,2.079a9.966,9.966,0,0,0-4.211-.163,15,15,0,0,1-4.815-.108l-.6-1.149q-.6,3.713-3.6,2.811l-5.417-1.862-1.8,1.4-1.808-1.629a11.834,11.834,0,0,1-1.2,3.164l-4.212.443v-12.16q.6-11.61.6-34.727l.6-58.436-.6-68.045v-29.8c0-1.622-.105-3.633-.3-6.044a42.034,42.034,0,0,1,.3-8.548l.6-9.185v-8.51a62.351,62.351,0,0,1,.6-10.4v-23.716l-.6-18.788v-27.36l.6-7.358q0-3.648-3.61-3.273l-35.484,5.556-15.635,1.643a2.2,2.2,0,0,1-1.8-.417,35.079,35.079,0,0,1-3.61-6.311,79.233,79.233,0,0,1-4.212-10.505,18.867,18.867,0,0,1-1.206-5.95c0-1.212-.105-2.929-.3-5.137a10.341,10.341,0,0,0-1.5-5.017,4.631,4.631,0,0,1-.9-3.549,10.4,10.4,0,0,1,1.507-3.811,8.99,8.99,0,0,0,.6-3.708q-1.208-6.556,3.007-10.044a4.065,4.065,0,0,0,1.8-3.236,3.99,3.99,0,0,1,1.5-3.5,2.894,2.894,0,0,1,3.315-.045l3.6.228,48.723-5.727a96.052,96.052,0,0,1,12.629-.108l4.808-.505,27.066-2.845a104.937,104.937,0,0,0,11.424-1.807,99.243,99.243,0,0,1,10.828-1.751l22.854-1.8a31,31,0,0,0,7.219-.146l24.664,1.659,2.4.967c0,.811-.2,1.234-.6,1.276q-1.809,2.623.6,3.588c2,.2,2.6,1.348,1.8,3.463q-1.2,3.773,1.808,4.06l-3.006,3.969,1.2-.126.6,8.445a12.845,12.845,0,0,1,.6,6.627,7.3,7.3,0,0,1-1.8,5.054,5.148,5.148,0,0,0-2.11,2.964,9.056,9.056,0,0,0,.3,3.916,15.426,15.426,0,0,1,.6,4.8,56.5,56.5,0,0,1-7.219,5.017,12.7,12.7,0,0,1-5.41,1.788l-1.207.127q-8.42.885-26.463,1.562l-21.046,2.818c-2.412.253-3.21,1.353-2.412,3.3v24.321q0,26.755.6,40.071,0,17.64.6,26.69l-.6,11.013a58.585,58.585,0,0,0,.6,8.444,59.8,59.8,0,0,1,.6,8.454,103.549,103.549,0,0,1-1.206,12.894v3.038l.6,41.9q0,29.8-.6,45.062v60.812l-1.2,20.8.594,3.582Zm-111.266-322.754-.6-.543a29.633,29.633,0,0,0-4.807,7.2,11.005,11.005,0,0,0,3.308-2.779A28.361,28.361,0,0,0,2694.112-5891.383Zm52.325,7.275v-1.22l-1.8.19q-12.636,1.327-40.3,5.455v.606q13.225-1.389,19.245-2.628,4.206-.442,9.924-1.346A95.179,95.179,0,0,1,2746.438-5884.108Zm-38.49,10.122,16.239-2.919-16.842,2.376Zm19.246-17.222,21.053-2.213q-3.617-.837-12.629.107a148.155,148.155,0,0,0-15.944,2.594q-8.116,1.761-9.322,3.108a8.473,8.473,0,0,1,3.309.259,6.869,6.869,0,0,0,2.705.321l16.246-2.92,13.827-1.452v-.614L2727.193-5890Zm-12.027-15.155v.606l20.45-2.755v-1.22Q2722.381-5907.115,2715.166-5906.364Zm14.43,28.276,16.238-1.707Zm24.663,253.413v0Zm13.232,14.422v24.936l.6-.063v-24.935Zm5.411,32.876,1.206-.127.6-3.707q1.2-18.368,1.2-27.494,0-10.934-1.2-31.493l-.6-15.748q0-20.675-1.206-60.686-.611-15.13-.6-46.753v-19.457l-.6-51.627-.6-33.994v-7.3a.861.861,0,0,0-.6-.846.842.842,0,0,1-.6-.847l-1.8,2.008v4.259q.6,20.621.6,61.353v37.7q0,50.473,1.8,75.215.6,9.063.6,28.517v28.58q1.2,40.015,1.2,59.465C2772.7-5579.985,2772.9-5579,2772.9-5577.377Zm-1.2,6.21-.6.063-.6,7.36.6-.064A33.811,33.811,0,0,0,2771.7-5571.167Zm6.616-198.33v-50.469l-.6.063v50.47Zm0,48.045v0Zm2.4,145.684.6-.063q0,7.295-1.206,22.016l-1.205.126Zm.6-255.455v-10.342l-.6.063-.6,3.1a31.972,31.972,0,0,1,.6,7.241Zm3.007,176.633v12.775l1.2-.126v-51.084l-1.8-41.157v-72.367l-2.4,3.292a1.5,1.5,0,0,0,0,1.825c1.2.284,1.7.837,1.5,1.669a8.618,8.618,0,0,0-.3,1.858,52.106,52.106,0,0,0-1.8,6.265q0,5.478,1.2,18.726l-.6,1.282v14.593l.6,7.234,1.206,26.021q0,12.16,1.206,37.575v31.618Zm4.2-207.8v-12.775l-.595.063v12.774Zm1.809,260.68v-6.085l-.6.064Zm4.212-240.03v-12.16a11.867,11.867,0,0,0-1.809,6.872Q2792.75-5843.364,2794.558-5841.736Zm-1.206-37.575v20.063l.6-.063v-20.063Zm5.412,97.937v0Zm2.411,10.089v0Zm0,41.953v0Zm4.808-168.945,55.332-5.815v-.606q-16.842.565-25.259,1.442-9.631,1.011-30.073,4.373Zm18.047,5.4-16.842,1.77v1.22l16.842-2.375Zm-.6,5.542-15.636,1.643Z" transform="translate(-219.172 -86.748)" fill="#4e7180"/>
    <path id="Path_112" data-name="Path 112" d="M3254.953-5605.511l-3.006.316-1.206,1.952-4.213-.776a5.536,5.536,0,0,1-3.006-2.116,4.628,4.628,0,0,0-1.809,2.023,8.052,8.052,0,0,1-1.2,1.945c-.407-1.17-.9-1.421-1.507-.751a2.818,2.818,0,0,1-1.5,1.067,61.025,61.025,0,0,0-7.219-5.326v3.652l-1.206,1.953a1.534,1.534,0,0,0-1.2-.488c-.406.043-.6-.134-.6-.542l-1.206-2.305-1.2.731-3.61-3.871v.606a17.732,17.732,0,0,0,.6,5.407,10.627,10.627,0,0,1-4.212.745c-1.206-.069-2.208-.882-3.006-2.419l-1.206-1.085-1.8-1.03-1.205,2.559a9.935,9.935,0,0,0,.6,4.195c-2.005.211-3.414-.346-4.212-1.687a7.394,7.394,0,0,1-1.2-2.608,10.648,10.648,0,0,0-1.206,4.384l-1.8-3.463c-.406.043-1.01.516-1.809,1.41l-.6-2.369q-6.624-36.4-9.623-49.465a32.124,32.124,0,0,0-1.2-7.17q0-2.433-2.411-2.179a7.072,7.072,0,0,0-3.007.929q-4.815,1.723-14.43,2.729l-22.854,1.8a87.38,87.38,0,0,0-14.437,1.518q-8.421,1.5-14.438,2.124a3.01,3.01,0,0,0-3.007,3.354l-3.609,21.057q-1.2,8.036-4.807,25.44l-1.808,9.306a2.41,2.41,0,0,1-2.4,2.685,5.1,5.1,0,0,0-2.706,1.5,28.223,28.223,0,0,0-2.1,2.047,7.933,7.933,0,0,0-3.609-.235v.614l-3.006-2.117-4.212,2.262v-1.818a3.767,3.767,0,0,1-2.11,1.434c-.6.063-1.1-.491-1.5-1.668-.807.493-2.11,1.245-3.911,2.245a14.9,14.9,0,0,1-5.712,1.813l-3.007-.3q-1.809,5.054-9.622,5.884l-2.4-4.006-1.809,3.229-1.205-1.086a25.629,25.629,0,0,0-4.205-7.468,2.635,2.635,0,0,1-.3-2.09,5.486,5.486,0,0,0,.3-1.555,27.68,27.68,0,0,0,1.2-4.384l1.206-4.991,1.206-11.075c0-2.022.595-2.9,1.8-2.621l.6-.669a23.359,23.359,0,0,0,2.1-8.427c.2-3.059.3-5.4.3-7.032.4-.443.5-.757.3-.941a1.105,1.105,0,0,1-.3-.877l2.4-5.117q3.606-14.971,4.212-22.946a133.436,133.436,0,0,1,4.815-27.259l2.4-13.633q.6-4.928,3.007-17.947l3.609-19.837a28.4,28.4,0,0,0,.6-6.45,27.976,27.976,0,0,1,.6-6.451,6.506,6.506,0,0,1,1.8-4.447c.8-.888,1.6-3,2.4-6.329l9.027-52.032,3.006-14.909a80.734,80.734,0,0,1,.6-11.617l5.417-28.543q1.2-3.16,1.2-9.855l.6-2.5,7.219-37.24,5.411-27.936q1.2-6.2,6.616-25.623a11.023,11.023,0,0,1,1.8-2.622,11.357,11.357,0,0,0,1.808-2.623c1.605-1.381,2.811-2.122,3.61-2.206a8.517,8.517,0,0,1,3.609.841,5.641,5.641,0,0,0,2.4.959,9.01,9.01,0,0,0,2.412.353,1.512,1.512,0,0,0,1.2.489.609.609,0,0,0,.6-.678,5.1,5.1,0,0,1,4.808-1.415,11.84,11.84,0,0,0,3.013.593,5.048,5.048,0,0,0,1.8-.8q1.2-.727,1.808-.19,2.4.363,6.616-1.3,1.8-.792,5.41.036.6-.061,1.8,2.244l6.616-4.339c.8-.494,1.8-.189,3.006.9q2.408,2.793,6.616-.089a25.425,25.425,0,0,1,4.212,12.938q.6,7.846.6,9.059,1.2,12.034,3.007,17.315l9.02,42.225,7.822,41.139q6.612,37.616,11.424,62.043,4.815,26.246,7.821,39.918l7.219,39.376,8.417,39.855,7.219,30.867,6.013,30.379v4.864c0,.812.8.933,2.411.354l.6,1.763Q3260.356-5607.292,3254.953-5605.511Zm-185.248-43.766-3.61,19.23.6-.063,1.206-6.816,1.2-6.211,1.206-6.2Zm15.636,24.5a21.387,21.387,0,0,1,2.4-3.6,7.064,7.064,0,0,0,1.808-4.139,3.328,3.328,0,0,0-.6-2.376l.6-1.882,1.8-11.137-1.2-2.307-1.205,1.348-2.4,4.5q-2.408,8.777-2.4,13.028A32.144,32.144,0,0,0,3085.341-5624.773Zm1.808,23.526v5.47l1.2.48,9.623-55.133c-2,.211-3.21.648-3.61,1.3s-.4,1.967.008,3.947q1.2-1.33,1.2-1.944a97.62,97.62,0,0,1-3.61,20.443,73.224,73.224,0,0,1-3.006,14.908Q3087.142-5608.543,3087.149-5601.247Zm7.219-169.2-3.014,16.122.6-.063q2.408-11.8,3.007-16.121Zm.595,58.31,1.808-14.177a109.527,109.527,0,0,0-2.4,14.238Zm3.007-73.289,7.218-40.279-.6.063-7.212,40.278Zm0,178.782,8.424-44.058-1.206.127-7.814,43.994Zm39.1-302.682a9.945,9.945,0,0,0,.294,2.4,5.87,5.87,0,0,1-.294,3.07l-1.809,8.706-1.205,2.56q-1.809,11.749-1.8,12.35l-5.411,31.58-6.021,29.819-4.808,27.267-7.219,30.551q-3.005,11.873-9.623,45.4a7.179,7.179,0,0,0-.6,3.1q3.007.912,3.911.2c.6-.472,1.1-1.737,1.507-3.81q.587-2.495,2.095-12.381a72.532,72.532,0,0,1,5.116-18.177,2.912,2.912,0,0,0,.3-2.153,2.863,2.863,0,0,1,.3-2.16v-3.652l5.417-24.285a7.9,7.9,0,0,0,.294-3.675,7.856,7.856,0,0,1,.3-3.685q1.2-7.423,4.815-27.26l2.4-13.633,9.02-48.379q3.606-21.052,4.815-29.085Q3140.669-5908.487,3137.071-5909.325Zm-33.08,147.6-2.411,9.368.6-.063,2.4-9.367Zm31.875-104.9,1.206-8.037a8.937,8.937,0,0,1,1.8-5.054v1.826l-7.821,42.782-3.609,15.579q-4.816,27.271-7.815,40.957-2.407,12.412-8.424,36.155-.6,2.5-1.5,7.454a47.729,47.729,0,0,1-2.11,8.132q-2.407,9.367-3.006,12.477a2.524,2.524,0,0,0,2.412,2.785q3.605.235,4.807-1.111a9.475,9.475,0,0,0,1.808-4.448l.6-4.321q.6-1.881,0-2.433-1.2-2.907,1.205-9.249l2.4-5.116v-8.509q2.407-11.2,4.212-17.475a82.738,82.738,0,0,1,2.4-8.762,58.763,58.763,0,0,0,2.411-10.6,22.768,22.768,0,0,1,1.2-6.809q.6-2.494,1.507-5.325t1.5-5.333l6.021-34.077q6.013-28.6,8.417-43.451a5.815,5.815,0,0,0,.3-3.071,7.8,7.8,0,0,1-.3-1.794l-1.206.127a56.428,56.428,0,0,1-1.2,8.029c0-.4-.407-.564-1.206-.479a51.012,51.012,0,0,0,1.808-12.958q0-7.909-3.014-13.063l-3.6,27.132-3.014,13.092-3.6,13.751-1.808,12.964.6-.063.6-1.283Zm-31.279,261.12.6-.063,2.4-12.422-.594.063Q3105.788-5612.943,3104.586-5605.512ZM3107-5831.979l1.8-14.782,1.809-4.449,6.615-33.533,13.232-64.627.6-1.889a.6.6,0,0,0-.6.668q-2.418,11.212-4.212,16.862-6.624,30.5-8.425,39.8-1.809,8.1-6.013,30.432l-3.007,16.735-3.006,14.908Zm9.019,119.456,1.206-.127,1.2-3.778,13.232-64.021q3.606-16.187,9.622-49.662,4.206-22.934,7.822-38.517v-2.433l-1.205.128-3.61,17.4-9.02,47.765-3.006,14.3q-.611,3.724-3.007,14.3l-12.629,61.533A7.275,7.275,0,0,1,3116.017-5712.523Zm27.67-107.5,6.013-30.432-1.206.127-27.67,136.691c0,.409.4.564,1.206.479l1.205-2.559a6.777,6.777,0,0,0,.3-3.373,4.29,4.29,0,0,1,.3-2.774l8.417-41.626,7.821-38.524a60.347,60.347,0,0,0,2.4-10.284Q3143.08-5816.917,3143.687-5820.022Zm-20.451-32.515,3.007-15.515-.6.063-3.006,15.516Zm2.4,65.423.6-.063-2.4,9.981-.6.063Zm-2.4,105.449,58.339-6.131v-.606l-58.339,6.132Zm0,2.432,59.545-6.258v-1.818l-59.545,7.471Zm58.941-13.491-57.14,6.006v.606q3.006.3,21.053-1.6Q3179.774-5691.252,3182.177-5692.724Zm-49.921-117.588-4.815,13.28Q3127.441-5805.544,3132.256-5810.312Zm-4.815,108.142,3.013-.316,12.63-1.328,32.477-3.414a13.94,13.94,0,0,0,4.212-1.049q-2.418-.962-23.457,1.245Q3130.455-5704.313,3127.441-5702.17Zm46.312-16.422,3.609-.379-8.417-44.72q-6.012-37.669-14.438-75.106-1.808,6.282-4.211,18.687l-3.007,14.91a106.236,106.236,0,0,1-3.006,15.521q-1.809,8.1-8.417,36.155l-5.411,24.891q-1.208,10.469-1.808,11.745a4.753,4.753,0,0,0-.3,2.767c.2.585,1.1.793,2.706.625Zm-21.046,16.2-21.054,2.213v.606a20.665,20.665,0,0,0,3.007.9,12.715,12.715,0,0,0,4.211.163,34.364,34.364,0,0,0,7.219-1.978Zm-18.65-128.17-.6.062a60.041,60.041,0,0,1,2.4-9.375l.6-.063A61.005,61.005,0,0,1,3134.057-5830.564Zm4.212-16.862-1.2.126,3.6-20.442,1.206.479Zm39.093,133.926-26.464,2.782v.606l25.862-2.718Zm-12.629-123.939-2.4-10.084-1.809-11.363-.6.062q1.2,8.4,2.4,11.3L3177.965-5761l1.206-.126q-1.209-8.375-2.411-11.3Q3172.555-5798.121,3164.733-5837.44Zm9.02,18.516-10.822-57.848-.6.063a4.637,4.637,0,0,0,.3,1.491c.2.586.1.9-.3.941a2.459,2.459,0,0,0-1.809,3.228,17.74,17.74,0,0,1,.6,2.976q1.2,8.4,4.815,25.035l14.429,78.752q1.2,7.17,4.815,22.6l3.61,19.078.6,1.762,1.2-.126-1.2-7.784a2.234,2.234,0,0,1,1.8.424q-1.809-10.153-6.616-29.1v3.039a.6.6,0,0,0-.6.677l-4.205-23.273.6-.062.6,2.369a35.092,35.092,0,0,0-1.8-11.366v-.614a7.443,7.443,0,0,1-2.411-5.824v-1.219a15.15,15.15,0,0,0,.3-7.935,27.076,27.076,0,0,0-1.5-5.312l-.6,1.889-.6.063-3.007-16.717.6-.063a1.892,1.892,0,0,1,.6,1.459,1.865,1.865,0,0,0,.6,1.46Zm6.02,114.9-16.841,2.383v.606l16.841-1.77Zm-14.437-188.812-.6.063q2.4,12.524,4.212,20.841l.6-.063Q3167.129-5886.337,3165.335-5892.838Zm1.8-14.176a10.747,10.747,0,0,1-.3,2.472,3.341,3.341,0,0,0,.3,2.392l20.45,107.919,1.206-.127-1.808-11.971q-6.013-32.2-8.417-47.766l-4.815-22.6a12.98,12.98,0,0,0-.3-2.089,2.476,2.476,0,0,1,.3-2.168c.8-.485,1-1.522.6-3.1q-3.007-2.117-1.8-6.5a26.565,26.565,0,0,1-3.014-8.5A34.636,34.636,0,0,0,3167.137-5907.015Zm17.444,65.054-9.02-52.559,18.04,90.533a11.053,11.053,0,0,0,.6-4.321l-4.212-20.84-2.4-16.773v-7.3l-.6-3.589q-2.408-13.112-4.2-19.621a99.974,99.974,0,0,0-2.412-12.521q-1.808-9.539-6.615-27.271l-1.8-13.191a35.419,35.419,0,0,0-1.205,6.817,52.81,52.81,0,0,0,1.5,10.479,52.662,52.662,0,0,1,1.508,9.874l-3.609-14.82-.6.063,14.43,75.1Zm-10.226-11.085,6.013,32.813.6-.064-6.014-32.812Zm3.006-13.083,3.61,19.683a.6.6,0,0,1,.6-.669l-3.61-19.078Zm7.219,66.129-1.8-10.146-.6.064,1.8,10.145Zm6.013,35.85,2.4,7.052,1.809,13.183,1.205-.127L3193-5757.1l-1.8-9.547-1.8-8.319a97.718,97.718,0,0,1-2.411-13.733l-.6.063q.6,3.585,3.014,13.67Zm-4.212,20.514.6-.063,1.808,8.326-.6.063Zm4.815-145.231-1.8-9.54-.6.064,1.8,9.54Zm3.609,19.079.6-.064L3193-5881.759l-.595.063Q3193.6-5874.526,3194.807-5869.788Zm5.41,101.589,1.205-.733a13.08,13.08,0,0,0-.6-4.195l1.809,1.637a.6.6,0,0,1,.6-.669l-3.006-13.67-.6.063,1.808,10.145-1.205.127q-3.007-14.879-4.205-20.235l-.6.064Q3199.015-5775.362,3200.217-5768.2Zm-4.205-93.813,9.02,49.528,1.2-.125-9.019-50.136Zm7.211,202.345-1.2-2.912a.6.6,0,0,0-.6.669,8.034,8.034,0,0,0,.6,3.589l7.219,38.156,1.2,2.306.6-.063-.6-7.839v-4.258a8.2,8.2,0,0,0-1.8-5.281,3.268,3.268,0,0,1-.6-2.369Zm.6,41.292v7.9l1.206-.127a35.212,35.212,0,0,1-.6-7.839Zm6.014-172.724q-1.2-5.341-2.4-14.947l-1.206.127,3.61,14.82,3.609,20.3,1.206-.74Q3211.037-5784.527,3209.84-5791.1Zm9.027,44.05-2.412-11.3-.595.063q1.2,8.4,2.4,11.3Zm-1.808,100.522-.6.064,3.61,17.258,1.205-.126Q3220.062-5633.455,3217.058-5646.527Zm4.212-19.294,5.411,24.366.6-.062q-4.814-22.6-5.41-24.367Zm12.63,52.188-1.206-7.776-.6.063a36.334,36.334,0,0,1,.6,7.84Zm10.828.074q0-11.546-5.418-24.964.6,4.189,1.507,12A33.125,33.125,0,0,0,3244.728-5613.56Z" transform="translate(-409.516 -65.559)" fill="#4e7180"/>
    <path id="Path_113" data-name="Path 113" d="M3583.069-5650.367l-1.2.125v-3.039a3.308,3.308,0,0,0-.6-2.369q-2.409-2.178-1.206-7.776l.6-28.643-1.8-65.487-1.207-36.969c0-.8-.2-1.19-.6-1.149v7.3l.6,38.852q1.2,30.286,1.207,46.7a85.2,85.2,0,0,1,.595,12.1,102.941,102.941,0,0,1-.595,12.837q0,8.513-1.207,25.661,0,1.227-3.609,8.29a16.375,16.375,0,0,1-2.4,3.9,1.158,1.158,0,0,0-.3-.878c-.2-.176-.106-.5.3-.948a87.117,87.117,0,0,0,3.609-24.1c.4-1.663.8-3.523,1.2-5.6a39.244,39.244,0,0,0,.6-7.359q0-18.24-.6-27.3,0-19.457-1.2-58.253l-1.808-48.46q-.61-14.528-.6-43.715l-.6-29.124.6-25a50.124,50.124,0,0,0-1.2-9l-.6.064v4.863l-.6,49.321.6,52.232,1.8,51.5v38.308l.6,10.271v25.542l-1.2.126-3.609-99.953-.6.063V-5785l1.205,61.291,1.8,56.364a62.227,62.227,0,0,1-.6,8.572,61.306,61.306,0,0,0-.6,8.581l-.6,9.791-.6,4.927-3.006-3.942-1.809,5.055q-2.407-3.383-2.4-11.3,0-6.684,1.8-10.524v7.3l.6-.063q.6-5.53.9-11.339t.905-11.961v18.852a84.748,84.748,0,0,0,2.4-15.148q.6-8.269.6-10.7a21.186,21.186,0,0,0-2.412,2.072l-.595-3.581-1.206-26.022q0-4.25-1.8-5.894c-.406.043-.6-.748-.6-2.369l-.6-27.3-1.205-38.8a187.848,187.848,0,0,0-1.8-26.564l1.8,93.453q-1.2-13.241-1.2-39.4l-1.206-33.932-1.206.127v3.652l1.809,58.19q1.2,26.627,1.2,38.788a112.106,112.106,0,0,1-2.4,24.574q-.612,2.5-1.206,6.211a54.286,54.286,0,0,0-.6,8.571,10.831,10.831,0,0,0,.6,6.021,19.354,19.354,0,0,1-.6,5.533c0,1.621-.807,2.313-2.4,2.079a9.994,9.994,0,0,0-4.212-.164,15.017,15.017,0,0,1-4.815-.108l-.6-1.149q-.6,3.713-3.6,2.811l-5.418-1.862-1.8,1.4-1.808-1.628a11.871,11.871,0,0,1-1.2,3.165l-4.213.442v-12.161q.6-11.61.6-34.728l.6-58.435-.6-68.045v-29.8c0-1.622-.105-3.634-.3-6.046a41.93,41.93,0,0,1,.3-8.548l.6-9.185v-8.508a62.305,62.305,0,0,1,.6-10.4v-23.716l-.6-18.789v-27.36l.6-7.359q0-3.648-3.609-3.272l-35.484,5.556-15.636,1.643a2.208,2.208,0,0,1-1.8-.417A35.086,35.086,0,0,1,3467-5956.8a79.24,79.24,0,0,1-4.212-10.506,18.9,18.9,0,0,1-1.206-5.95c0-1.212-.1-2.928-.3-5.136a10.349,10.349,0,0,0-1.5-5.018,4.627,4.627,0,0,1-.9-3.549,10.423,10.423,0,0,1,1.506-3.81,8.983,8.983,0,0,0,.6-3.708q-1.209-6.556,3.006-10.044a4.064,4.064,0,0,0,1.8-3.235,3.99,3.99,0,0,1,1.5-3.5,2.893,2.893,0,0,1,3.315-.046l3.6.228,48.722-5.727a95.955,95.955,0,0,1,12.63-.108l4.808-.5,27.066-2.845a104.924,104.924,0,0,0,11.424-1.808,99.7,99.7,0,0,1,10.828-1.751l22.854-1.8a31.048,31.048,0,0,0,7.219-.145l24.664,1.658,2.4.967c0,.811-.2,1.235-.6,1.276q-1.808,2.621.6,3.589c2,.2,2.6,1.348,1.8,3.462q-1.2,3.774,1.809,4.061l-3.007,3.968,1.2-.126.6,8.446a12.831,12.831,0,0,1,.6,6.627,7.3,7.3,0,0,1-1.8,5.053,5.153,5.153,0,0,0-2.11,2.965,9.047,9.047,0,0,0,.3,3.916,15.422,15.422,0,0,1,.6,4.8,56.533,56.533,0,0,1-7.219,5.017,12.708,12.708,0,0,1-5.411,1.789l-1.206.126q-8.42.885-26.464,1.562l-21.046,2.818q-3.617.381-2.411,3.3v24.322q0,26.755.6,40.071,0,17.64.6,26.691l-.6,11.012a58.48,58.48,0,0,0,.6,8.445,59.867,59.867,0,0,1,.6,8.453,103.72,103.72,0,0,1-1.206,12.894v3.038l.6,41.9q0,29.8-.6,45.063v60.811l-1.2,20.8.6,3.582ZM3471.8-5973.122l-.6-.542a29.676,29.676,0,0,0-4.807,7.2,11,11,0,0,0,3.309-2.781A28.372,28.372,0,0,0,3471.8-5973.122Zm52.324,7.276v-1.22l-1.8.189q-12.636,1.329-40.3,5.456v.605q13.225-1.389,19.246-2.629,4.206-.442,9.924-1.346A95.26,95.26,0,0,1,3524.127-5965.846Zm-38.49,10.122,16.239-2.919-16.841,2.376Zm19.245-17.221,21.054-2.213q-3.617-.836-12.629.107a148.158,148.158,0,0,0-15.944,2.592q-8.116,1.762-9.321,3.109a8.48,8.48,0,0,1,3.308.258,6.89,6.89,0,0,0,2.7.323l16.247-2.92,13.827-1.453v-.614l-19.245,2.023Zm-12.025-15.156v.607l20.45-2.756v-1.22Q3500.071-5988.852,3492.857-5988.1Zm14.429,28.276,16.239-1.708Zm24.664,253.412v0Zm13.232,14.423v24.935l.6-.063v-24.936Zm5.41,32.875,1.206-.126.6-3.708q1.2-18.366,1.2-27.493,0-10.933-1.2-31.492l-.6-15.75q0-20.673-1.206-60.685-.61-15.131-.6-46.753v-19.458l-.6-51.626-.6-33.994v-7.3a.862.862,0,0,0-.6-.846.839.839,0,0,1-.6-.845l-1.8,2.007v4.257q.6,20.623.6,61.355v37.7q0,50.473,1.8,75.216.6,9.064.6,28.516v28.581q1.2,40.015,1.2,59.465C3550.389-5661.723,3550.592-5660.737,3550.592-5659.116Zm-1.2,6.21-.6.063-.6,7.361.6-.064A33.776,33.776,0,0,0,3549.394-5652.905Zm6.616-198.329v-50.47l-.6.063v50.469Zm0,48.044v0Zm2.4,145.684.6-.063q0,7.3-1.206,22.016l-1.206.127Zm.6-255.454V-5923.3l-.6.064-.6,3.1a32.042,32.042,0,0,1,.6,7.241Zm3.006,176.632v12.776l1.2-.127v-51.083l-1.8-41.157v-72.366l-2.4,3.291a1.5,1.5,0,0,0,0,1.826c1.2.282,1.695.837,1.5,1.668a8.636,8.636,0,0,0-.3,1.858,52.133,52.133,0,0,0-1.8,6.266q0,5.479,1.2,18.725l-.6,1.283v14.593l.6,7.233,1.205,26.021q0,12.162,1.206,37.577v31.617Zm4.2-207.8V-5956.9l-.595.063v12.774Zm1.809,260.68v-6.084l-.6.063Zm4.211-240.03v-12.16a11.88,11.88,0,0,0-1.808,6.873Q3570.44-5925.1,3572.248-5923.475Zm-1.205-37.575v20.063l.6-.063v-20.064Zm5.41,97.937v0Zm2.412,10.089v0Zm0,41.953v0Zm4.808-168.946,55.331-5.815v-.606q-16.841.565-25.258,1.443-9.63,1.011-30.073,4.373Zm18.047,5.4-16.841,1.77v1.22l16.841-2.376Zm-.6,5.541-15.635,1.644Z" transform="translate(-619.748 -44.647)" fill="#4e7180"/>
    <path id="Path_114" data-name="Path 114" d="M4070.468-5723.333l4.808-6.59,1.205-.126,3.006-6.393q8.423-20.344,9.623-49.057l1.206-31.139a4.383,4.383,0,0,1,.6,1.763q1.2,14.467,1.2,21.157a166.042,166.042,0,0,1-7.815,50.685q-5.425,16.39-12.629,26.254-14.444,17.339-30.676,26.334-12.027,7.355-31.279,10.584-4.2,1.055-11.122,2.691a93.384,93.384,0,0,1-11.129,2.08,56.749,56.749,0,0,1-19.848-1.558,50.716,50.716,0,0,1-11.725-3.027q-6.318-2.369-8.726-3.34-7.211-2.878-16.239-13.493l-12.026-15.761q-1.21-1.088-2.4-4.612-5.426-21.318-6.615-27.277a86.449,86.449,0,0,1-3.007-20.968,88.779,88.779,0,0,1-.3-12.432q.294-5.2.3-8.852l.6-9.792v-2.433q-.612-2.367,1.2-5.6.6-2.5,6.615-14.682,1.808-3.224,4.213-3.481l3.006.291a6.251,6.251,0,0,0,3.006.3q3.606-.38,4.212,1.99c1.2,1.086,1.8,1.432,1.8,1.022a8.922,8.922,0,0,1,3.609-.985,8.856,8.856,0,0,0,3.609-.986v3.645l3.609-2.206a39.912,39.912,0,0,1,10.225-4.113c1.6-.167,2.6-.068,3.007.29q11.416,8.541,12.026,9.079l-3.007,9.438a13.208,13.208,0,0,0,0,7.9q0,9.728.6,16.659t1.206,11.125a35.86,35.86,0,0,0,.595,7.839q1.2,10.83,2.412,14.953a7.341,7.341,0,0,0,2.7,3.361q2.1,1.609,2.713,2.147a39.305,39.305,0,0,0,21.054,3.258l13.827-2.059q11.428-1.8,16.239-14.475,3.6-8.891,3.609-27.746,0-6.07-1.2-19.332a32.227,32.227,0,0,0-1.206-7.17l-4.807-14.087c-.807-1.538-1.613-2.968-2.411-4.308s-1.4-2.383-1.8-3.16q-6.013-9.1-18.047-19.993-2.408-1.565-12.629-6.575l-19.245-10.751a98.83,98.83,0,0,0-10.83-5.545,22.949,22.949,0,0,1-10.82-7.379l-10.829-10.417q-19.847-21.018-27.066-59.179a79,79,0,0,1-1.8-16.836,76.523,76.523,0,0,1,2.4-19.1q2.4-11.2,4.212-16.861a51.88,51.88,0,0,1,6.014-15.226q4.2-7.125,11.423-17.62,10.828-13.912,23.457-21.316,3.606-2.2,12.629-7.4a69.527,69.527,0,0,1,16.842-7.249,79.842,79.842,0,0,1,15.636-2.855,147.818,147.818,0,0,1,23.457-.647q7.822.405,21.054,6.3a79.7,79.7,0,0,1,19.847,11.9,38.3,38.3,0,0,1,6.014,7.27,130.976,130.976,0,0,1,12.629,29.079,58.921,58.921,0,0,1,1.8,10.759q.6,6.621,1.205,10.815l1.809,21.093.6,8.453v1.826l-3.014,5.181-3.007.316.6,2.369a3.847,3.847,0,0,1-.6,2.5l-2.4,2.685-5.41,2.387-5.418.569-8.417.884q-1.209-.474-6.615-2.342a6.317,6.317,0,0,0,.6,2.975c-.806.084-1.206-.07-1.206-.48q-2.406-2.179-4.212-1.383a3.61,3.61,0,0,1-3.6-1.439c-1.205-1.495-2.916-1.717-5.117-.676a22.585,22.585,0,0,1-3.91,1.624v-4.865a2.655,2.655,0,0,1-.3-2.1,7.247,7.247,0,0,0,.3-2.16l-3.006-24.005q-.612-7.233-4.206-20.235,0-1.217-4.815-6.791c-.406-.366-.9-.822-1.507-1.364a6.813,6.813,0,0,1-1.5-1.971q-4.815-6.178-13.232-5.3l1.8-2.008a104.037,104.037,0,0,0-12.628.713q-9.021.948-21.047,8.9a16.321,16.321,0,0,0-4.814,5.37q-4.217,8.968-7.219,17.179-.61,2.5-1.206,4.687c-.4,1.467-.8,3.024-1.2,4.688a37.6,37.6,0,0,0,.6-7.966l-.6.063-.6,3.708a56.323,56.323,0,0,0-.6,9.792q0,10.956,5.417,28.01,3.007,10.641,13.232,19.893l2.4,1.573-9.02-9.387.6-.676q13.224,13.214,22.251,16.512,1.8,4.073,6.616,3.563a11.152,11.152,0,0,0-6.616-3.563l-9.623-6.891a15.076,15.076,0,0,1-4.815-3.752,2.252,2.252,0,0,1,1.809.424q6.612,5.988,23.45,12.734a151.028,151.028,0,0,1,33.683,18.35,108.649,108.649,0,0,1,33.081,38.484q1.808,4.072,3.911,10.234t3.308,9.684q1.2,2.306,2.4,10.082.6-17.088-9.623-36.69l.6-.669,5.41,11.592a69.515,69.515,0,0,1,4.506,15.642q1.505,8.662,2.109,11.637,1.809,8.323,1.809,25.958v20.063q0,17.025-7.822,42.782a46.018,46.018,0,0,1-3.609,7.07,26.149,26.149,0,0,0,2.4-6.943l-7.813,16.021ZM3933.34-5915.677q12.625,21.79,36.681,35.672v-.605c-.8-.727-1.4-1.072-1.8-1.031q-14.447-10.642-21.054-17.245-13.236-14.417-22.854-40.164-6.014-17-5.411-31.656a53.534,53.534,0,0,1,.6-8.58q.6-3.71,1.2-6.209a71.982,71.982,0,0,1,10.828-30.931l1.809-3.842-.6.064q-3.007,5.18-5.719,10.026t-4.506,8.687l1.206-4.991a27.558,27.558,0,0,1,1.2-4.384l-1.8,2.622-.6,1.889a96.527,96.527,0,0,0-7.219,36.635,75.576,75.576,0,0,0,2.4,19.81q6.612,32.151,26.464,52.56l6.021,6.049a.6.6,0,0,1,.6-.667Q3937.541-5905.172,3933.34-5915.677Zm-14.438,129.83-.6-4.193-1.2.125.6,2.977c0,1.621-.2,2.658-.6,3.1-1.206,1.347-1.613,3.216-1.206,5.605Q3918.9-5782.8,3918.9-5785.848Zm3.61,41.575-5.411-32.875A100.974,100.974,0,0,0,3922.512-5744.273Zm-.6-199.39-.6.67q-2.407-10.079-3.006-13.057a.6.6,0,0,1,.6-.676A88.9,88.9,0,0,0,3921.909-5943.663Zm1.206,202.978a.6.6,0,0,1-.6.669,98.965,98.965,0,0,0,2.4,13.734l.6-.063A129.992,129.992,0,0,0,3923.115-5740.685Zm43.306-266.036q-7.223,6.852-8.425,11.834a181.218,181.218,0,0,0-4.807,23.614,25.171,25.171,0,0,0,.595,9.363q1.2,5.046,1.809,6.8a67.4,67.4,0,0,1,3.006,11.238q.6,1.756,1.2,3.821t1.206,3.829a140.333,140.333,0,0,0,9.019,10.909,32.058,32.058,0,0,0,10.226,7.745l36.689,17.428a142.932,142.932,0,0,1,15.041,8.148q15.631,12.949,21.649,21.44,1.8,2.856,5.108,7.365a31.671,31.671,0,0,1,4.513,8.042q6.613,13.9,7.822,42.351l-.6,31.075a125.185,125.185,0,0,1-6.617,34.14,80.2,80.2,0,0,0-3.013,7.923,32.184,32.184,0,0,1-4.2,8.648,161.245,161.245,0,0,1-13.233,13.552q-14.433,13.075-28.868,15.194-5.414,1.183-11.129,2.086t-11.121,2.079a35.562,35.562,0,0,1-7.823,2.033q-3.006.316-11.423-1.23l-12.034-3.6a27.045,27.045,0,0,1-10.821-6.766q-7.222-8.97-10.226-13.518a40.719,40.719,0,0,1-5.417-10.379l-3.006-14.883-3.006-22.793-.6-1.763-1.2.127a25.567,25.567,0,0,1,.6,6.021q3.6,21.511,6.021,31.592a28.8,28.8,0,0,0,2.4,6.749,59.5,59.5,0,0,1,2.412,5.52q.6,1.153,6.616,9.64l4.815,4.964a22.552,22.552,0,0,0,10.52,7.107q6.318,2.075,7.52,2.551c1.206.282,3.512.858,6.917,1.713a28.41,28.41,0,0,0,9.924.775l18.643-3.172q14.434-2.733,20.45-4.582,18.639-7.438,31.875-25.247,6.012-7.928,6.616-10.424,9.019-21.008,9.629-39.927,1.2-17.152,1.2-26.273a162.259,162.259,0,0,0-.6-16.355q-2.407-24.07-7.211-35.119l-3.61-6.917q-12.037-15.76-18.649-22.369-12.636-12.037-33.08-21.451-3.007-1.5-18.642-7.77-14.445-6.392-19.245-14.4l-1.206-1.093-6.616-5.995a24.069,24.069,0,0,1-3.609-8.13l-3.61-14.827a48.9,48.9,0,0,1-1.8-13.184v-3.038a43.785,43.785,0,0,1,1.2-9.551q1.2-5.3,1.809-7.184a22.834,22.834,0,0,1,5.411-11.518l3.014-3.969,9.019-9.456q-1.209.74-4.513,3.209A12.357,12.357,0,0,0,3966.42-6006.72Zm-34.286-20.717c0,.408.2.585.6.542l6.616-9.205c0-.4-.2-.583-.6-.542Q3931.527-6026.769,3932.135-6027.437Zm1.206,72.238-1.206.733q3.6,9.349,7.821,23.5l1.2-.732Q3937.537-5941.046,3933.34-5955.2Zm18.039-63.313q-7.222,6.838-13.232,22.067T3934.538-5976l5.417-21.853a29.287,29.287,0,0,1,5.712-12.155A57.72,57.72,0,0,0,3951.379-6018.512Zm89.015,282.526c.8.325,1.8.014,3.006-.923a6.733,6.733,0,0,0,2.4-3.3l4.213-10.779q.6-1.879,2.4-7.245a54.3,54.3,0,0,0,2.411-9.68l3.006-33.153q1.8-25.114-6.615-44.91a73.591,73.591,0,0,0-4.815-8.919q-2.409-3.7-4.213-6.551a20.22,20.22,0,0,0-4.2-5.634q-5.426-6.114-16.841-14.65a21.856,21.856,0,0,0-6.617-4.168,55.433,55.433,0,0,0-6.616-3.259c-2-.805-3.812-1.524-5.411-2.167l-12.636-6.583q-1.2-.475-5.711-2.135a22.581,22.581,0,0,1-7.521-4.377l-2.4-1.572a118.119,118.119,0,0,1-13.835-10.1,34.537,34.537,0,0,1-10.821-18.926,107.881,107.881,0,0,0-4.212-12.325l-4.213-12.331a73.276,73.276,0,0,1-1.2-11.429q0-14.593,6.617-30.488,4.2-12.6,18.039-24.4,4.816-3.541,9.623-6.482a90.849,90.849,0,0,0,8.424-5.75l3.609-2.205c-.407.042-.6-.133-.6-.543a25.151,25.151,0,0,0-3.91,2.238,18.693,18.693,0,0,1-5.117,2.355,28.708,28.708,0,0,0-9.623,6.187q-4.815,4.461-7.211,6.531l-1.808,2.017a42.572,42.572,0,0,1-4.212,5.913q-9.019,10.073-11.423,19.445l-2.4,8.762a71.446,71.446,0,0,0-3.006,19.167,50.974,50.974,0,0,0,1.2,9.6q5.414,19.5,9.623,32.44,3.006,8.2,15.04,17.876a69.225,69.225,0,0,0,18.643,10.808q10.829,4.339,13.834,5.842a139.536,139.536,0,0,1,25.258,13.764q9.02,6.962,19.848,19.8,9.021,12.439,11.431,24.339,2.4,22.865,3.007,34.349,0,7.91-1.205,23.842a5.356,5.356,0,0,1-.6,2.8,4.049,4.049,0,0,0-.6,2.193,21,21,0,0,1-.6,8.579q-1.2,4.378-1.8,6.267l-4.213,11.391a19.923,19.923,0,0,1-3.006,3.96l-4.807,4.764c1.6-.569,2.4-.655,2.4-.252l-9.02,8.243a71.1,71.1,0,0,0-6.623,3.735,21.96,21.96,0,0,1-9.013,3.38l-3.014.316a12.357,12.357,0,0,0-5.411.577,28.64,28.64,0,0,1-5.411,1.175v.606l6.616-.7-25.266,5.088v.606a6.282,6.282,0,0,0,3.014.29l13.827-2.059q11.427-1.8,17.143-3.317a31.159,31.159,0,0,0,11.13-5.731l10.82-9.048a2.287,2.287,0,0,0,.6-1.579A2.285,2.285,0,0,1,4040.394-5735.985Zm-96.233,36.261-6.014-6.664-.6.669a59.574,59.574,0,0,0,6.021,6.664Zm9.027-344.52-9.027,7.639c.4-.042.6.141.6.543l9.02-7.639C3953.384-6043.658,3953.188-6043.834,3953.188-6044.244Zm-4.212,94.092,3.006,6.981a51.665,51.665,0,0,0,2.4,8.862q4.815,14.1,19.849,23.456a.6.6,0,0,1,.6-.669l-2.4-1.574q-14.445-11.245-18.65-26.619l-1.8-3.456a8.668,8.668,0,0,0-1.206-3.525,119.717,119.717,0,0,1-4.2-23.879v-10.949a38.43,38.43,0,0,0-1.809,11.745Q3944.764-5961.256,3948.976-5950.152Zm-3.609,253.339-.6.677c2,1.82,3.609,2.659,4.815,2.532a.6.6,0,0,1,.6-.669Q3945.965-5696.875,3945.367-5696.812Zm23.458-321.1,7.218-8.056-.6.064-1.205.126q-5.414,1.786-12.027,10.387a108.52,108.52,0,0,0-6.615,9.811q-3.618,5.857-4.213,10.178a216.89,216.89,0,0,0-3.609,22.269,10.735,10.735,0,0,0-.3,4.291,19.244,19.244,0,0,1,.3,3.006,79.3,79.3,0,0,0,4.513,15.641,121.259,121.259,0,0,1,4.506,13.2q3.606,13.009,17.445,21.882,6.612,5.4,22.251,12.263,10.217,4.4,21.054,10.25a78.679,78.679,0,0,1,18.04,13,180.41,180.41,0,0,1,15.644,16.9,52.01,52.01,0,0,1,9.019,17.6,21.422,21.422,0,0,1,2.4,6.438,32.06,32.06,0,0,0-1.2-7.17q-2.418-9.475-4.814-13.48a107,107,0,0,0-22.252-25.029,95.334,95.334,0,0,0-28.868-17.643q-21.058-8.117-28.273-13.448-15.033-11.784-18.642-23.574l-3.006-8.807a58.365,58.365,0,0,1-5.411-23.752,103.437,103.437,0,0,1,1.2-12.294A59.328,59.328,0,0,1,3968.824-6017.914Zm-13.232,219.694a3.754,3.754,0,0,0-1.207-2.912l2.4-1.472-5.41-6.728c0,.409-.4.648-1.2.732.8.734,1.394,2.5,1.8,5.289S3953.588-5798.819,3955.592-5798.22Zm-4.213-249.478,1.206-.126,18.643-11.083a60.174,60.174,0,0,1,20.451-7.627,205.521,205.521,0,0,1,30.676-2.005q21.045,2.052,33.676,11.054l4.814,3.752q-9.019-9.395-24.964-13.8a90.889,90.889,0,0,0-33.977-2.513Q3971.826-6066.88,3951.379-6047.7Zm0,12.161,21.054-15.593q-4.216,1.056-11.732,6.7T3951.379-6035.537Zm5.41,266.991a50,50,0,0,1,1.206,8.381l.6-.062q.6-8.565-2.4-21.031l-1.206,1.346a6.364,6.364,0,0,1-.6-2.981l-1.2.125a46.788,46.788,0,0,0,.595,12.712q1.2,7.171,1.809,11.97A76.54,76.54,0,0,0,3956.79-5768.546Zm-3.6-252.588,11.423-12.149-.6-1.148Q3955.589-6026.251,3953.188-6021.134Zm5.41,211.044-4.213-.769c.4.768.9,1.731,1.5,2.88a4.367,4.367,0,0,0,2.11,2.21q2.4,1.579,2.4,6.437a19.384,19.384,0,0,0-.6,5.534v3.038a27.6,27.6,0,0,0,2.4-10.586A11.243,11.243,0,0,0,3958.6-5810.09Zm17.444-65.077-19.253-11.349Q3963.4-5879.3,3976.042-5875.167Zm5.411-15.162-24.061-15.1a36.149,36.149,0,0,0,10.83,8.591Q3974.833-5893.273,3981.453-5890.329Zm-18.047,149.667a18.492,18.492,0,0,0,1.205,4.738,3.339,3.339,0,0,0,2.4,1.565l-1.8-3.455a36.953,36.953,0,0,1,3.6,2.356,15.559,15.559,0,0,0,4.815,2.229q3.606,1.451,12.637,1.709a123.336,123.336,0,0,0,14.431-.3,61.878,61.878,0,0,0,14.438-3.343q12.026-3.082,15.033-13.135,3.606-8.879,4.212-13.209a92.9,92.9,0,0,0,2.1-10.253q.9-5.867,1.507-8.978a158,158,0,0,0,.6-15.876,134.356,134.356,0,0,0-1.808-22.305q-4.217-28.13-30.677-44.207a131.222,131.222,0,0,0-13.525-6.784,78.193,78.193,0,0,1-10.527-5.281q-1.208-1.088-7.821-3.436l-.6.67q7.211,3.5,8.424,3.979a149.763,149.763,0,0,1,20.745,9.375,60.853,60.853,0,0,1,14.739,11.831q14.433,14.906,18.04,30.942a103.213,103.213,0,0,1,1.808,19.267l-.6,15.869a57.1,57.1,0,0,1-.6,9.8v-25.541a19.15,19.15,0,0,0-.6,5.533q-1.2,22.016-4.808,37.6a53.641,53.641,0,0,1-5.412,14.554q-3.616,5.859-13.231,8.074a78.289,78.289,0,0,1-11.43,1.815,79.627,79.627,0,0,1-21.047-.221q-11.438-.615-13.835-11.319a71.285,71.285,0,0,1-1.808-15.01v-3.652q0-8.5-3.006-13.67-.61,1.893-1.206,3.779a16.744,16.744,0,0,0-.6,4.926l.6,9.666a20.441,20.441,0,0,0,1.2,6.564,20.265,20.265,0,0,0,1.205,6.563l-.6.063-1.8-4.069a.6.6,0,0,1-.6.67,27.042,27.042,0,0,1,1.5,4.412A15.057,15.057,0,0,0,3963.406-5740.662Zm17.443,27.353-16.238-5.59v.606Q3973.632-5712.546,3980.85-5713.309Zm92.022-31.561a25.132,25.132,0,0,0-1.205,3.165,10.748,10.748,0,0,0-.6,3.1l.6,2.369-.6,1.889a22.033,22.033,0,0,0-2.109,3.57,14.194,14.194,0,0,1-4.506,5.028,56.665,56.665,0,0,0-5.116,5.1,37.472,37.472,0,0,0-3.911,4.972q-20.447,21.6-45.106,24.2a21.328,21.328,0,0,0-4.808,1.725l-5.418,1.176-22.252,3.559c-1.206.127-1.8-.015-1.8-.425a2.692,2.692,0,0,0-2.712-1.836,25.166,25.166,0,0,0-2.706-.026l-2.4.866q7.211,2.889,11.43,2.442l1.8-.189,24.655-2.591q23.454-3.67,39.7-15.728,9.021-5.812,19.253-19.654a4.451,4.451,0,0,0,.9-1.913,3.15,3.15,0,0,1,1.508-1.993q3.008-1.519,4.212-7.125l1.2-3.172a11.744,11.744,0,0,0,1.205-4.991A4.548,4.548,0,0,0,4072.872-5744.87Zm-86.008,16.335-9.623-.814-8.417-3.373q3.006,3.945,7.218,3.5l1.2-.126q4.815,1.926,7.822,1.61l1.8-.188Zm-7.814,6.9-10.225-4.4Q3971.83-5722.084,3979.049-5721.636Zm11.423,43.191-14.43.91q2.4.954,7.815.392A29.785,29.785,0,0,0,3990.473-5678.444Zm-13.232-349.477a100.788,100.788,0,0,1,17.143-4.233q9.924-1.644,15.334-2.833l-12.628.722Q3984.453-6032.937,3977.241-6027.921Zm1.809,101.968-1.809-.416.6,1.148q12.627,8.4,15.041,9.369,4.2,1.989,17.738,8.167a212.477,212.477,0,0,1,24.361,12.949c0,.409.4.564,1.2.48,0-.8-.2-1.19-.6-1.149q-4.815-2.541-11.123-6.127t-14.739-8.187q-4.2-1.99-14.128-6.418A73.229,73.229,0,0,1,3979.049-5925.953Zm13.233,63.065a.6.6,0,0,1,.6-.67l-12.637-5.362v.606a53.881,53.881,0,0,0,6.616,3.268C3988.868-5864.241,3990.669-5863.521,3992.282-5862.887Zm71.569,27.748-.6.063v.606a183.9,183.9,0,0,1,2.4,31.374,218.837,218.837,0,0,1-1.8,27.549,45.958,45.958,0,0,1-.6,6.45q-.61,4.02-1.205,6.514a122.932,122.932,0,0,1-3.609,12.843q-2.409,7.254-3.6,10.41a14.827,14.827,0,0,1-3.609,5.857,118.837,118.837,0,0,1-11.432,11.537q-13.234,12.336-28.264,14.525-8.433.888-25.259,3.867l6.616,1.131.6-.063a134.621,134.621,0,0,1,15.04-2.793,43.376,43.376,0,0,0,16.533-5.078,157.272,157.272,0,0,0,17.143-11.236,65.408,65.408,0,0,0,5.719-5.769q3.3-3.688,5.713-6.374,2.394-2.684,4.815-9.021,7.81-20.279,7.813-32.439l.6-12.839a101.159,101.159,0,0,0,.6-12.83q0-6.683-1.206-21.156a19.186,19.186,0,0,0-1.2-5.958A32.168,32.168,0,0,0,4063.851-5835.139Zm-71.569-51.463,22.854,12.8.6-.676q-3.617-2.053-10.527-6.494A38.315,38.315,0,0,0,3992.282-5886.6Zm45.1,143.636-6.615,6.166q-9.021,8.858-23.458,11.588a73.782,73.782,0,0,0-10.829,1.744,7.067,7.067,0,0,0-3.006.93,31.133,31.133,0,0,0,7.219-.153,62.281,62.281,0,0,0,24.053-7.7Q4036.179-5736.758,4037.387-5742.967ZM4001.9-5875.453l12.629,7.794.6-.668-12.63-7.8A.6.6,0,0,1,4001.9-5875.453Zm.6,17.575a.6.6,0,0,1-.6.669,30.82,30.82,0,0,0,5.411,3.69v-.606A15.426,15.426,0,0,0,4002.506-5857.877Zm21.046,161.97-16.238,3.532Q4016.932-5692.17,4023.553-5695.907Zm4.815-362.928q19.237,7.707,23.457,9.088Q4038.59-6057.47,4028.368-6058.835Zm17.436,76v7.3l1.206-.127v-12.767a42.971,42.971,0,0,0-1.8-12.585l-6.021-17q-1.2-2.306-6.616-4.775a13.489,13.489,0,0,1,6.616,8.419l3.609,8.137A70.046,70.046,0,0,1,4045.8-5982.832Zm24.664,131.8q.6-6.143-13.232-23.233t-20.451-18.831Q4060.239-5872.459,4070.468-5851.034Zm-25.862,5.15-7.219-10.8-.6.063,7.219,11.4A.6.6,0,0,0,4044.606-5845.884Zm6.013-141.1.6-.678v-6.076a79.8,79.8,0,0,0-10.829-31.094,15.311,15.311,0,0,0-3.007-3.328Q4050.613-6007.044,4050.619-5986.982Zm-2.4,169.905c0-.4-.2-.585-.6-.543v1.826l-1.206,39.041q0,5.479-2.4,15.452l-4.213,13.217a3.813,3.813,0,0,0-.6,2.5l.6-.063q9.02-21.621,9.02-52.031Q4048.811-5810.446,4048.215-5817.077Zm13.232,106.852-21.656,17.475A65.941,65.941,0,0,0,4061.447-5710.225Zm-18.649-87.432v-12.161l-.6.064v12.161Zm3.61-225.979-.6.669a2.288,2.288,0,0,1,.6,1.763q9.617,20.276,7.821,40.525l.6,2.982a65.094,65.094,0,0,0,.6-9.791Q4055.428-6002.08,4046.408-6023.635Zm1.808,191.359,3.61,28.2Q4051.825-5822.919,4048.215-5832.276Zm9.623,96.282-6.013,7.93c0,.409.2.585.6.543l6.021-7.929Zm-3.609,19.231q6.012-3.679,12.026-15.252A151.77,151.77,0,0,1,4054.229-5716.763Zm16.239-142.787-15.04-21.529a.605.605,0,0,1-.6.676l15.033,21.521Zm-13.232-22.325-.6.669,12.629,17.523Q4062.039-5876.288,4057.236-5881.875Zm11.423-162.951q12.027,26.717,13.835,49.621Q4082.494-6023.777,4068.659-6044.825Zm4.815,293.2-4.212,11.384c.4-.042.6.141.6.55l4.815-11.455Zm-2.4-245.418v15.208a.6.6,0,0,1,.6-.678A126.475,126.475,0,0,1,4071.07-5997.042Zm7.211,243.693.6-.063q2.409-4.5,3.911-21.081t1.507-32.391q0-15.808-1.808-19.874v13.98l-1.8,37.892-2.412,17.892a2.938,2.938,0,0,0-.3,2.16A4.882,4.882,0,0,1,4078.281-5753.349Z" transform="translate(-850.331 -19.343)" fill="#4e7180"/>
    <path id="Path_115" data-name="Path 115" d="M4381.1-5745.379q0-20.061,14.43-30.1a34.671,34.671,0,0,1,14.437-5.162,30.876,30.876,0,0,1,13.232,1.042,22.8,22.8,0,0,1,14.43,11.25,32.87,32.87,0,0,1,4.213,18.408q-1.808,12.352-12.026,21.941-7.823,8.732-17.445,9.736-7.222.759-15.636-3.221Q4382.288-5727.26,4381.1-5745.379Zm19.848-60.458,1.2-.125-4.205-3.21-.6,1.282a1.1,1.1,0,0,0-.9.7,1.1,1.1,0,0,1-.9.7,5.675,5.675,0,0,1-4.212,1.056c-1.206-.282-1.8-1.234-1.8-2.856a6.324,6.324,0,0,1-.6-2.976v-44.392l-1.8-53.318q0-13.979-1.206-41.834l.6-11.619v-4.864l-2.4-50.822q-.612-12.1-.6-36.427l-1.8-44.809c0-2.023.293-3.266.9-3.739s1.7-.588,3.309-.348q3.007.9,9.027.263a36.655,36.655,0,0,0,7.814-1.427c.8-.894,1.206-.937,1.206-.127a3.818,3.818,0,0,0,4.213-2.268c.8-1.705,2.4-2.685,4.807-2.938a35.524,35.524,0,0,0,7.821-2.034l3.6-.379a12.972,12.972,0,0,1,4.212.164,9.841,9.841,0,0,0,4.212.164,8.044,8.044,0,0,1,6.013,1.5q2.4,1.884,2.4,6.134l-.595,30.461q-1.208,32.973-1.207,50l-1.2,60.324q-1.2,23.846-2.4,68.967l-1.205,50.6-1.8,29.989c-.407,2.475-1.6,3.813-3.61,4.024a3.213,3.213,0,0,1-2.4-.353c-.806-.317-2.011.014-3.609.985a36.64,36.64,0,0,1-7.821,1.436l-9.02.334a7.88,7.88,0,0,0-2.712.9A7.8,7.8,0,0,1,4400.946-5805.837Zm-6.013,38.94-6.021,6.1,1.206,1.093,4.814-6.589Zm15.636-5.295q-4.216-.762-12.033,4.916t-8.417,10.007Q4395.521-5765.747,4410.568-5772.192Zm-11.432-91.229v-11.547l-.6.064v46.816l-.6.063v-8.508a24.225,24.225,0,0,0-1.207,7.423,65.518,65.518,0,0,0,1.2,12.338q1.2,6.261,3.014,7.9l1.8-.8-1.8-7.714q-.611-5.4-.6-17.575Zm15.041,120.649v-4.259a8.118,8.118,0,0,1,1.8.114,1.9,1.9,0,0,0,1.809-.494,5.45,5.45,0,0,0,1.2-3.77,2.285,2.285,0,0,0-.6-1.763q-3.6-4.485-11.422-4.883c-.807.494-1.206.945-1.206,1.346l-3.609,8.888q-1.2,4.991.6,6.626-1.2-4.124,3.609-11.934a5.509,5.509,0,0,1,3.609-2.5,4.455,4.455,0,0,1,4.213,1.074l.6,1.156c-.807.9-.911,1.512-.31,1.858a2.619,2.619,0,0,0,1.507.448l1.207,1.692a.6.6,0,0,0-.6.677l-4.815-1.926-.6,4.313a5.343,5.343,0,0,1-.3-3,10.755,10.755,0,0,0,.3-2.472v-1.826a2.713,2.713,0,0,1-1.808.8l-1.8,2.008a5.855,5.855,0,0,0-3.609,5.857l.6,5.407c.391,1.58,1.19,2.413,2.4,2.483a17.411,17.411,0,0,0,2.411.05,5.4,5.4,0,0,0,5.41-1.174,6.5,6.5,0,0,0,2.412-5.118v-1.22A11.674,11.674,0,0,0,4414.178-5742.772Zm5.411,5.515a13.292,13.292,0,0,1-7.822,3.253,14.512,14.512,0,0,1-9.622-2.64q3.005,4.548,9.026,3.917A11.583,11.583,0,0,0,4419.588-5737.257Zm-14.438-76.933-1.8-40.552q-.612,1.893-.6,12.224Q4402.747-5816.366,4405.15-5814.189Zm19.253,70.342a12.488,12.488,0,0,0,2.4-7.549q0-6.683-5.417-12.2-3.007-3.333-10.219-2.578a12.848,12.848,0,0,0-5.417,1.789,18.9,18.9,0,0,1,5.417-1.183q7.211-.758,10.821,4.34a14.032,14.032,0,0,1,3.609,9.956A35.345,35.345,0,0,1,4424.4-5743.847Zm-16.238-94.981v-24.927l-.6.063v24.928Zm2.4,10.089v-11.554l-.6.063v11.554Zm7.813,98.292v-.606l-8.417,2.71A52.456,52.456,0,0,0,4418.381-5730.447Zm-5.409-97.332,1.206-.126a96.6,96.6,0,0,0,2.4,12.515.849.849,0,0,0,.6.853.862.862,0,0,1,.6.846l2.4-2.078a13.176,13.176,0,0,1,.3-2.154c.2-1.036.1-1.73-.3-2.1a16.117,16.117,0,0,0-.6-4.5,15.81,15.81,0,0,1-.6-4.5l-.6-11.492.6-11.011q0-9.116-1.2-27.235v-15.812q1.2-14.718,1.2-22.621l-.6-26.7.6-31.075-.6-29.729q0-10.945-.594-16.356,0-4.252-1.206-15.08l.6-12.831v-14.593l.6-.063v-24.322a4.3,4.3,0,0,0-.9,1.922,1.628,1.628,0,0,1-1.507,1.37v41.347l-1.2-15.679-1.206.126v42.567l.6,24.259a20.549,20.549,0,0,0,.6,6.013l-.6,5.542a3.266,3.266,0,0,0,.6,2.369,6.463,6.463,0,0,1,1.2,3.822v2.742a23.677,23.677,0,0,0,.6,6.619,28.372,28.372,0,0,1,.6,6.627v3.038a15.135,15.135,0,0,1-.6-4.8l-1.2.126v55.947l-.6.064v-8.516l-1.206.126-.6,12.232q-.609,16.475-.6,49.927v15.813a123.645,123.645,0,0,0,2.411,24.674,6.509,6.509,0,0,0,1.2-4.384Q4414.177-5822.431,4412.972-5827.779Zm1.206-133.9.6-11.617-1.207.126-.6,11.618Zm-1.206,4.377v40.749l1.206-.127v-40.749Zm0,84.526.6-.062v40.134l-.6.063Zm.6-211.07v9.123l.6-.063v-9.123Zm1.8,98.325-.6-6.627v-34.057c1.2,1.093,1.8,2.045,1.8,2.856a5.543,5.543,0,0,1,.3,3.015,10.277,10.277,0,0,0-.3,2.455,2.721,2.721,0,0,1-.6,1.89,1.958,1.958,0,0,0-.6,1.275v11.555a9.537,9.537,0,0,0,1.206,2.912c.8-.084,1.206.283,1.206,1.093s.1,2.634.294,5.447A11.943,11.943,0,0,1,4415.376-5985.523Zm4.815,228.132.6-.669-2.412-3.4-1.2,1.346Zm1.8-77.413v8.509l.6-.064v-8.508Zm9.027-252.7-1.205,69.455-.6.063-.6-1.156-.6-19.394.6-26.817v-15.207l-.6-4.8-1.2.125v21.89l-.6,55.4v12.16q0,4.263.3,10.311a114.882,114.882,0,0,1-.3,14.011q0,34.664-.6,52.358,0,11.558-.6,17.089l-.6,17.7q1.2,41.222,1.2,60.678c0,2.44,1.2,3.526,3.609,3.272v-60.811l-1.205.126q0,16.424-1.2,48.171,0-29.8,1.2-89.517t.6-89.456l1.206-.127q.6,20.623.6,61.96l1.2-.125v-15.2q.6-8.577.6-25.606v-35.27l.6-18.915v-38.309l-1.206-4.737A.6.6,0,0,1,4431.019-6087.507Zm-3.609,269.159a4.75,4.75,0,0,0-.3,2.767c.195.585.9,1.02,2.1,1.294Q4430.41-5817.445,4427.41-5818.348Zm1.2-76.75-.6,8.579,1.205-.126v-8.517Z" transform="translate(-1094.803)" fill="#4e7180"/>
  </g>
</svg>
