<svg id="AC-Logo-Lockup" xmlns="http://www.w3.org/2000/svg" xmlns:xlink="http://www.w3.org/1999/xlink" width="153.718" height="55.984" viewBox="0 0 153.718 55.984">
  <defs>
    <clipPath id="clip-path">
      <rect id="Rectangle_32" data-name="Rectangle 32" width="85.841" height="30.728" fill="#11131a"/>
    </clipPath>
  </defs>
  <path id="Path_94" data-name="Path 94" d="M268.31,577.533H232.828L250.569,546.8ZM288.618,546.8H280.3a15.364,15.364,0,0,0,0,30.728h8.316Z" transform="translate(-232.828 -521.549)" fill="#f54052"/>
  <g id="Group_101" data-name="Group 101" transform="translate(67.877 25.256)">
    <g id="Group_39" data-name="Group 39" transform="translate(0 0)">
      <g id="Group_38" data-name="Group 38" transform="translate(0 0)" clip-path="url(#clip-path)">
        <path id="Path_64" data-name="Path 64" d="M4.643,8.574H8.777L8.2,7.026C7.716,5.766,7.207,4.4,6.787,3.135H6.632C6.213,4.4,5.7,5.766,5.218,7.026ZM9.551,10.63h-5.7L2.609,13.925H0L5.306.659H8.18l5.306,13.266H10.767Z" transform="translate(0 -0.372)" fill="#11131a"/>
        <path id="Path_65" data-name="Path 65" d="M38.077,14.792h-.022c-.464,2.233-1.791,3.14-3.537,3.14-2.5,0-3.449-1.658-3.449-3.891V7.253h2.388V13.4c0,1.26.553,2.366,2.167,2.366A2.221,2.221,0,0,0,38.077,13.4V7.253h2.388V17.644H38.077Z" transform="translate(-17.524 -4.091)" fill="#11131a"/>
        <path id="Path_66" data-name="Path 66" d="M63.141,8.468V8.291c0-1.99-1.061-3.272-2.764-3.272-1.813,0-2.7,1.238-2.7,3.382,0,2.079.84,3.272,2.7,3.272,1.7,0,2.764-1.15,2.764-3.205m0,2.144H63.1c-.464,2.1-1.681,3.228-3.692,3.228-2.7,0-4.09-2.079-4.09-5.439,0-3.449,1.481-5.527,4.09-5.505,2.078-.022,3.25,1.106,3.714,3.25h.022V0h2.388V13.553H63.141Z" transform="translate(-31.2 0)" fill="#11131a"/>
        <path id="Path_67" data-name="Path 67" d="M82.346,3.162h2.388V13.553H82.346Zm0-3.162h2.388V1.769H82.346Z" transform="translate(-46.448 0)" fill="#11131a"/>
        <path id="Path_68" data-name="Path 68" d="M92.8,11.11h5.438a2.352,2.352,0,0,0-2.609-2.454A2.6,2.6,0,0,0,92.8,11.11m-2.41,1.128c0-3.515,2.078-5.594,5.306-5.594,3.161,0,4.753,1.99,4.753,4.842,0,.42,0,.84-.044,1.393H92.781a2.679,2.679,0,0,0,2.941,2.609,2.354,2.354,0,0,0,2.586-1.879l2.079.6c-.531,1.99-1.946,3.361-4.687,3.361-3.184,0-5.306-1.9-5.306-5.329" transform="translate(-50.988 -3.748)" fill="#11131a"/>
        <path id="Path_69" data-name="Path 69" d="M118.428,17.3H116.04V6.909h2.388V9.761h.022c.464-2.211,1.791-3.117,3.537-3.117,2.5,0,3.449,1.636,3.449,3.891V17.3h-2.388V11.154c0-1.26-.553-2.366-2.167-2.366a2.22,2.22,0,0,0-2.453,2.366Z" transform="translate(-65.453 -3.748)" fill="#11131a"/>
        <path id="Path_70" data-name="Path 70" d="M167.367,11.178h5.439A2.352,2.352,0,0,0,170.2,8.724a2.6,2.6,0,0,0-2.83,2.454m-2.41,1.128c0-3.515,2.078-5.594,5.306-5.594,3.161,0,4.754,1.99,4.754,4.842,0,.42,0,.84-.044,1.393h-7.628a2.679,2.679,0,0,0,2.941,2.609,2.355,2.355,0,0,0,2.586-1.879l2.079.6c-.531,1.99-1.946,3.361-4.687,3.361-3.184,0-5.306-1.9-5.306-5.329" transform="translate(-93.045 -3.786)" fill="#11131a"/>
        <path id="Path_71" data-name="Path 71" d="M1.572,45.614c0-4.046,2.675-6.876,6.677-6.876a5.93,5.93,0,0,1,6.1,4.662l-2.451.464a3.625,3.625,0,0,0-3.717-2.848c-2.653,0-4.112,2.034-4.112,4.6C4.07,48.378,5.529,50.3,8.2,50.3a3.641,3.641,0,0,0,3.716-2.972s2.422.413,2.422.415A6.065,6.065,0,0,1,8.2,52.578c-4.068,0-6.633-2.9-6.633-6.964" transform="translate(-0.887 -21.851)" fill="#11131a"/>
        <path id="Path_72" data-name="Path 72" d="M34.967,50.8c0,2.012,1.039,3.338,2.919,3.338,1.9,0,2.963-1.327,2.963-3.338,0-1.99-1.106-3.25-2.94-3.25-1.858,0-2.941,1.26-2.941,3.25m-2.388.022c0-3.427,2.123-5.439,5.329-5.439,3.184,0,5.306,2.012,5.306,5.439,0,3.4-2.012,5.505-5.306,5.505-3.339,0-5.329-2.1-5.329-5.505" transform="translate(-18.376 -25.599)" fill="#11131a"/>
        <rect id="Rectangle_30" data-name="Rectangle 30" width="2.388" height="13.553" transform="translate(25.965 16.887)" fill="#11131a"/>
        <rect id="Rectangle_31" data-name="Rectangle 31" width="2.388" height="13.553" transform="translate(29.922 16.887)" fill="#11131a"/>
        <path id="Path_73" data-name="Path 73" d="M79.055,49.849h5.438a2.352,2.352,0,0,0-2.609-2.454,2.6,2.6,0,0,0-2.83,2.454m-2.41,1.128c0-3.515,2.078-5.594,5.306-5.594,3.161,0,4.754,1.99,4.754,4.842,0,.42,0,.84-.044,1.393H79.032a2.679,2.679,0,0,0,2.941,2.609,2.355,2.355,0,0,0,2.586-1.879l2.079.6c-.53,1.99-1.946,3.361-4.687,3.361-3.184,0-5.306-1.9-5.306-5.329" transform="translate(-43.232 -25.599)" fill="#11131a"/>
        <path id="Path_74" data-name="Path 74" d="M106.484,47.5c-1.7,0-2.9,1.061-2.9,3.294,0,2.122,1.172,3.294,2.94,3.294a2.425,2.425,0,0,0,2.522-1.934l2.315.5a4.449,4.449,0,0,1-4.792,3.627c-3.272,0-5.417-1.923-5.417-5.461,0-3.449,2.189-5.483,5.351-5.483,2.846,0,4.291,1.29,4.841,3.551l-2.35.393a2.453,2.453,0,0,0-2.514-1.777" transform="translate(-57.057 -25.57)" fill="#11131a"/>
        <path id="Path_75" data-name="Path 75" d="M145.358,8.761c-1.7,0-2.9,1.061-2.9,3.294,0,2.122,1.172,3.294,2.94,3.294a2.425,2.425,0,0,0,2.521-1.934l2.315.5a4.45,4.45,0,0,1-4.792,3.627c-3.272,0-5.417-1.923-5.417-5.461,0-3.449,2.189-5.483,5.351-5.483,2.846,0,4.291,1.29,4.841,3.551l-2.35.393a2.453,2.453,0,0,0-2.514-1.777" transform="translate(-78.985 -3.719)" fill="#11131a"/>
        <path id="Path_76" data-name="Path 76" d="M126.771,44.427h-1.415V42.415h1.415V39.651h2.366v2.764h3.073v2.012h-3.073v4.82c0,1.017.4,1.525,1.437,1.525a6.3,6.3,0,0,0,1.481-.243l.288,2.189a6.558,6.558,0,0,1-2.322.376c-2.277,0-3.25-1.5-3.25-3.449Z" transform="translate(-70.708 -22.366)" fill="#11131a"/>
        <path id="Path_77" data-name="Path 77" d="M143.31,41.9H145.7V52.291H143.31Zm0-3.162H145.7v1.769H143.31Z" transform="translate(-80.835 -21.851)" fill="#11131a"/>
        <path id="Path_78" data-name="Path 78" d="M154.136,56.382,150.024,45.99h2.586l1.415,4.024c.486,1.393,1.017,2.874,1.46,4.2h.044c.464-1.327.973-2.808,1.459-4.2l1.437-4.024h2.5l-4.068,10.392Z" transform="translate(-84.622 -25.941)" fill="#11131a"/>
        <path id="Path_79" data-name="Path 79" d="M176.244,49.849h5.439a2.352,2.352,0,0,0-2.609-2.454,2.6,2.6,0,0,0-2.83,2.454m-2.41,1.128c0-3.515,2.078-5.594,5.306-5.594,3.161,0,4.753,1.99,4.753,4.842,0,.42,0,.84-.044,1.393h-7.628a2.679,2.679,0,0,0,2.941,2.609,2.355,2.355,0,0,0,2.586-1.879l2.079.6c-.531,1.99-1.946,3.361-4.687,3.361-3.184,0-5.306-1.9-5.306-5.329" transform="translate(-98.053 -25.599)" fill="#11131a"/>
      </g>
    </g>
  </g>
  <text id="PART_OF" data-name="PART OF" transform="translate(0 7)" fill="#f54052" font-size="8" font-family="WorkSans-SemiBold, Work Sans" font-weight="600" letter-spacing="-0.03em"><tspan x="0" y="0">PART OF</tspan></text>
  <path id="Path_96" data-name="Path 96" d="M0,0H153.278" transform="translate(0.44 13.505)" fill="none" stroke="#c6ceda" stroke-width="0.5"/>
</svg>
